https://www.youtube.com/watch?v=45qeGcDB9VE
https://www.youtube.com/watch?v=BEtr8l0kBdA
https://www.youtube.com/watch?v=xil_Mjahv9c
https://www.youtube.com/watch?v=DgNt_zoaPFQ
https://www.youtube.com/watch?v=QPT4Tm2L1Ww
https://www.youtube.com/watch?v=zCGOvvQknoc
https://www.youtube.com/watch?v=LiO7ya_Da70
https://www.youtube.com/watch?v=k5slHCCKKhQ
https://www.youtube.com/watch?v=xb3O3nlWSAw
https://www.youtube.com/watch?v=LqX20TF3h7A
https://www.youtube.com/watch?v=b6UCPXDl73I
https://klarsen.net/infosec/owasp-webgoat-xss-lessons/
https://github.com/shantisuresh01/WebGoat-Lessons/blob/master/dom-xss/src/main/resources/plugin/DOMXSS/lessonSolutions/en/DOMXSS.html
https://github.com/fmauri/WebGoatSolutions/blob/master/Cross-SiteScripting_XSS/README.md
https://www.youtube.com/watch?v=XKlOVLnNa7o
https://www.youtube.com/watch?v=QgDnlGPWSi4
https://www.youtube.com/watch?v=GOfI41Q_PZY
https://github.com/WebGoat/WebGoat/wiki/(Almost)-Fully-Documented-Solution-(en)
