25
12571 1038
3577270 242
15611 1404
18291 1050
111 6
-54414 -3631598
54 4
11427 1766
-6634715 3842664
5395586 445739
11351 528
7013516 367
-6585235 -4078875
246 12
931808 -1502037
9745702 847
6986460 -3908234
100 8
186 12
6735 1218
6783375 4706954
8117278 1388639
7425 1696
46 4
20 8
