https://www.fwhibbit.es/guia-metasploitable-2-parte-1
https://metasploit.help.rapid7.com/docs/metasploitable-2-exploitability-guide
https://stuffwithaurum.blog/2015/06/14/metasploitable-2-walkthrough-an-exploitation-guide/
https://www.youtube.com/watch?v=n311TnD9Q_Y
