https://www.youtube.com/watch?v=Lnsdr4hUhMw&t=28s
https://github.com/Macmod/pwnable-writeups/blob/master/toddlers/random.md
https://github.com/victor-li/pwnable.kr-write-ups/blob/master/random.md
https://www.youtube.com/watch?v=MwOJkXdJOv4
https://www.bilibili.com/video/av46905340/
https://jeonyoungsin.tistory.com/915?category=878012
