http://rk700.github.io/2014/06/17/addslashes/
http://byd.dropsec.xyz/2016/07/23/Webchall-CTF-writeup2/
http://www.hackdig.com/02/hack-18982.htm
http://blog.wangxiyu.me/articles/wechall_sql.html
https://www.programmersought.com/article/57761620246/
