https://raw.githubusercontent.com/guillaume-nargeot/project-euler-clojure/master/src/project_euler/problem_187.clj
https://raw.githubusercontent.com/nayuki/Project-Euler-solutions/master/java/p187.java
https://raw.githubusercontent.com/nayuki/Project-Euler-solutions/master/python/p187.py
