https://gist.githubusercontent.com/yuheiomori/11415221/raw/d5fc55ec2d2a122ec9110a553fbe0ba9580e4833/main.c
https://raw.githubusercontent.com/mementum/codeeval/master/01-easy/0018-multiples-of-a-number/0018-multiples-of-a-number.cpp
https://gitlab.com/banjocat/codeeval_solutions/-/raw/master/18/main.go
https://raw.githubusercontent.com/edeng/CodeEval/master/Easy/MultiplesOfANumber.java
https://raw.githubusercontent.com/AnEmortalKid/codeeval-lua/master/src/main/lua/com/anemortalkid/codeeval/lua/easy/multiples/multiples.lua
https://raw.githubusercontent.com/edeng/CodeEval/master/Easy/MultiplesOfANumber.py
