https://advancedpersistentjest.com/2017/10/08/writeup-backdoor-pi-kaspersky-labs-ctf/
https://www.pwndiary.com/write-ups/kaspersky-industrial-ctf-quals-2017-backdoor-pi-write-up-reverse300/
https://teamrocketist.github.io/2017/10/08/Reverse-Kaspersky-Industrial-CTF-Quals-2017-Backdoor-Pi/
https://www.oddcoder.com/Kaspersky-ctf-Backdoor-Pi/
http://zeosutt.hatenablog.com/entry/2017/10/10/033717
https://www.oddcoder.com/Kaspersky-ctf-Backdoor-Pi/#
https://petircysec.com/kaspersky-industrial-ctf-quals-2017-backdoor-pi-300/
