https://raw.githubusercontent.com/derekhh/HackerRank/master/cut-the-tree.cpp
https://raw.githubusercontent.com/havelessbemore/hackerrank/master/contests/w2/cut-the-tree.java
https://gist.githubusercontent.com/monkeylyf/5724823/raw/b033c4e55e0ba496d17dfcd31b8afb2269fb4b19/gistfile1.py
