https://raw.githubusercontent.com/MaskRay/HackerRank/master/sam-and-substrings.cc
https://raw.githubusercontent.com/derekhh/HackerRank/master/sam-and-substrings.cpp
https://raw.githubusercontent.com/HamidTheGeek/HackerRankSolutions/master/Solutions/SamAndSubstrings.cs
