https://raw.githubusercontent.com/anomen-s/programming-challenges/master/root-me.org/Steganography/Squared-38/notes.txt
https://hackinblood.lasermark.co/steganography/
https://codeasy.nl/hacking/root-me-antwoorden/steganography-squared/
