https://github.com/skiptomyliu/solutions-bwapp#directory-traversal---files
https://youtu.be/T-orO2WlUsg
https://www.youtube.com/watch?v=ssuSW9bIoHY
https://www.youtube.com/watch?v=FtOsxFpibJY
https://www.youtube.com/watch?v=DiP2MU_Ik_Q
https://www.youtube.com/watch?v=Z8M9uaGF8dI
https://www.youtube.com/watch?v=dtiJc1QQPKk
https://www.youtube.com/watch?v=etFpAvjV0CA
https://www.youtube.com/watch?v=gJOcEYGFrw4
https://www.youtube.com/watch?v=L95M0F55Fp0
https://www.youtube.com/watch?v=NfBblM13CNc&t=12s
https://www.youtube.com/watch?v=DmGVipmtTS8
https://www.youtube.com/watch?v=T6vW0jFjg1s
