https://brianstormrage1134.wordpress.com/2018/11/15/elf-x86-basic/
https://re.kv.io/crackme/2.html
https://github.com/s1syphu5/RootMe-Challenges/blob/master/System/ELF%20x86%20-%20BSS%20buffer%20overflow/README.md
