24
47793 70242
37666 62957
24365 27290
26774 60168
53714 61375
18209 76341
41502 92094
90611 92228
87395 66938
67410 82650
74958 52503
58696 21112
94453 77051
71251 42989
56252 21864
61563 94045
82106 89229
57003 96472
16520 73778
56640 60235
35153 64850
36576 66656
56944 27188
58884 44339
