https://gist.githubusercontent.com/dinosaurfiles/de57c0d64414cca7562a/raw/f53176eb3739e09f3a2d90d4f2b323b95abb61d8/asmgame.asm
https://raw.githubusercontent.com/phuclevinh2000/CodeAbbey/master/Neumann's%20Random%20Generator.c
https://raw.githubusercontent.com/spokenlore/CodeAbbey/master/Beginner/21.%20neumannRNG/neumannRNG.cpp
https://raw.githubusercontent.com/aschutgh/CodeAbbey/master/ProblemN14ModularCalculator/Program.cs
https://raw.githubusercontent.com/pastelito02/Challenges-sol/master/Programming/Codeabbey/024/Ratzenfutz.d
https://gist.githubusercontent.com/kasperpeulen/8c0391f110737b2b9724/raw/261caa111187cccecd04044ea6f99142f4422f21/main.dart
https://raw.githubusercontent.com/pastelito02/Challenges-sol/master/Programming/Codeabbey/024/emmgame221.fs
https://raw.githubusercontent.com/javilag/codeAbbeyChalls/master/Challs/Go/024.go
https://raw.githubusercontent.com/pastelito02/Challenges-sol/master/Programming/Codeabbey/024/Haskeller.hs
https://raw.githubusercontent.com/meganroche/CodeAbbeySolutions/master/Java/NeumannRG.java
https://raw.githubusercontent.com/pastelito02/Challenges-sol/master/Programming/Codeabbey/024/melisale.jl
https://raw.githubusercontent.com/pastelito02/Challenges-sol/master/Programming/Codeabbey/024/OLEKSII.js
https://raw.githubusercontent.com/agilangovan/Kotlin-Random-Number-Generator/master/app/src/main/java/app/com/example/android/kotlinrandnumgenerator/RandomActivity.kt
https://raw.githubusercontent.com/pastelito02/Challenges-sol/master/Programming/Codeabbey/024/chris_bandit.lisp
https://raw.githubusercontent.com/pastelito02/Challenges-sol/master/Programming/Codeabbey/024/WyattMarks.lua
https://raw.githubusercontent.com/pastelito02/Challenges-sol/master/Programming/Codeabbey/024/stefan.schmiedl.ml
https://raw.githubusercontent.com/mpeshehonov/Codeabbey/master/practice/%2324/index.php
https://raw.githubusercontent.com/pastelito02/Challenges-sol/master/Programming/Codeabbey/024/pearl_barley.pl
https://raw.githubusercontent.com/vinitkantrod/codeabbey-Solutions-in-Python/master/24_modulo_and_time_difference.py
https://raw.githubusercontent.com/John-Russell/CodeAbbey/master/Neumanns%20Random%20Generator.rb
https://raw.githubusercontent.com/mmcdon20/code_abbey/master/src/main/scala/Abbey024.scala
https://raw.githubusercontent.com/pastelito02/Challenges-sol/master/Programming/Codeabbey/024/Guy-Gervais.vb
https://pastebin.com/raw/7cnR3MxF
https://pastebin.com/raw/ivTcm2Dr
https://pastebin.com/raw/mTkTLjKt
https://raw.githubusercontent.com/JesseClarkND/codeabbey_in_C-NET/master/Neumann's%20Random%20Generator
