http://hackerorgsolution.blogspot.com.co/2014/09/updike-cipher.html
https://raw.githubusercontent.com/charles-wangkai/hacker.org/master/challenge/UpdikeCipher.txt
https://raw.githubusercontent.com/luceatnobis/challenges/master/hacker.org/updike/solution
