https://raw.githubusercontent.com/nayuki/Project-Euler-solutions/master/haskell/p091.hs
https://raw.githubusercontent.com/nayuki/Project-Euler-solutions/master/java/p091.java
https://raw.githubusercontent.com/nayuki/Project-Euler-solutions/master/python/p091.py
