https://raw.githubusercontent.com/marcingutka/Duplicate-Encoder/master/Program.cs
https://raw.githubusercontent.com/xehpuk/codewars/master/duplicate-encoder/java/1/DuplicateEncoder.java
https://raw.githubusercontent.com/tangweikun/codewars/master/src/6kyu/Duplicate%20Encoder/pro2.js
https://raw.githubusercontent.com/AnujMacho/Duplicate-Encode-Codewars/master/duplicate_encode.py
