15
4 8 1 3 7 6 2 9 5
4 3 5 2 8 1 7 6 9
2 5 4 9 6 8 3 1 7
9 3 2 8 1 5 4 7 6
8 1 7 3 2 9 4 6 5
1 7 4 6 8 2 9 5 3
1 5 9 3 2 4 8 7 6
8 7 6 1 2 4 9 3 5
7 3 5 1 9 2 4 6 8
1 3 4 6 2 5 9 7 8
5 6 7 2 9 3 8 4 1
4 1 3 5 9 6 8 2 7
5 9 4 6 7 3 8 2 1
2 5 4 3 8 9 1 7 6
8 4 7 6 3 1 5 2 9
