https://computersecuritystudent.com/SECURITY_TOOLS/MUTILLIDAE/MUTILLIDAE_2511/lesson15/index.html
https://youtu.be/sTTdFujJIAA
https://youtu.be/e0M-qJYhCnk
https://youtu.be/uJoMHujjo_I
http://mcle8.blogspot.com/2013/11/bai-huong-dan-mutillidae-lesson-15-man.html

