http://location-href.com/xvwa-walkthrough/
https://youtu.be/VF2QCQ0IZ3w
https://youtu.be/rIeJQqp4pzQ
https://docplayer.net/62705840-Xvwa-technical-run-information-security-inc.html
https://www.youtube.com/watch?v=pQfdr8e643A
