https://raw.githubusercontent.com/c650/hackerrank-solutions/master/Algorithms/Implementation/between-two-sets.cpp
https://raw.githubusercontent.com/RyanFehr/HackerRank/master/Algorithms/Implementation/Between%20Two%20Sets/Solution.cs
https://raw.githubusercontent.com/irlndts/go-hackerrank/master/algorithms/implementation/between-two-sets.go
https://raw.githubusercontent.com/rshaghoulian/HackerRank_solutions/master/General%20Programming/Basic%20Programming/Between%20Two%20Sets/Solution.java
https://raw.githubusercontent.com/gabrielgiordan/hackerrank/master/algorithms/implementation/between-two-sets.js
https://raw.githubusercontent.com/s1ssagar/between-two-sets/master/between-two-sets.py
https://raw.githubusercontent.com/witekbobrowski/HackerRank/master/Algorithms/Implementation/between-two-sets.swift
