https://raw.githubusercontent.com/mementum/codeeval/master/02-medium/0200-sort-matrix-columns/0200-sort-matrix-columns.cpp
https://raw.githubusercontent.com/Kavit900/codeeval/master/job-offers/sort-matrix-columns/Main.java
https://raw.githubusercontent.com/mementum/codeeval/master/02-medium/0200-sort-matrix-columns/0200-sort-matrix-columns.py
