https://computersecuritystudent.com/SECURITY_TOOLS/MUTILLIDAE/MUTILLIDAE_2511/lesson2/index.html
https://youtu.be/1bXTq_qaa_U
https://youtu.be/VWZYyH0VewQ
http://antoanthongtinvthang.blogspot.com/2013/11/bai-huong-dan-mutillidae-lesson-2_24.html

