https://www.imuo.com/a/b38bed3d14dc12471653709e896a07f3633443feb0410e79a7383ea3c57ba5aa
https://blog.securityevaluators.com/hacking-hackazon-2bda9830ccf0
https://www.sevenlayers.com/index.php/145-hackazon
https://uceka.com/2017/05/29/deloitte-de-hacking-challenge-prequals-ctf/
https://raw.githubusercontent.com/rapid7/hackazon/master/VULNERABILITIES.md
https://appspider.help.rapid7.com/docs/conducting-a-basic-test-manually-against-hackazon
https://es.slideshare.net/ssuserdec930/hackazon-realistic-ecommerce-hack-platform
