https://net123.tistory.com/554?category=695510
https://www.youtube.com/watch?v=DMA1q6pVpCo
https://es.scribd.com/document/346770715/bwapp-tutorial-pdf
https://net123.tistory.com/552
https://metrolagu.eu.org/detail/DMA1q6pVpCo/%EC%9B%B9%ED%95%B4%ED%82%B9-110.-a9---bwapp-using-known-vulnerable-components---sqlitemanager-local-file-inclusion
https://www.dideo.ir/v/yt/DMA1q6pVpCo/%EC%9B%B9%ED%95%B4%ED%82%B9-110.-a9-bwapp-using-known-vulnerable
https://dokumen.tips/documents/bwapp-sanjiv-kawa-wordpresscom-nbsppdf-filephp-code-injection.html
https://docplayer.net/44193111-Bwapp-sanjiv-kawa-bwapp-page-1.html
https://www.hackingarticles.in/5-ways-exploit-lfi-vulnerability/
https://www.mmebvba.com/sites/default/files/downloads/bWAPP_intro.pdf
http://www.youknowi.xin/bwapp-missing-functional-level-access-control/
