https://www.youtube.com/watch?v=6zODJWqnTNY
https://www.youtube.com/watch?v=F4_pXuWFj0w
https://www.youtube.com/watch?v=0udG5OETQMw
https://www.youtube.com/watch?v=SHmQ3sQFeLE
https://www.youtube.com/watch?v=YZT55-cd1tc
https://www.youtube.com/watch?v=I0SusAlT1wY
