https://raw.githubusercontent.com/PacktPublishing/Learning-R-Programming/master/Chapter%202/basic-objects.R
https://raw.githubusercontent.com/pastelito02/Challenges-sol/master/Programming/Codeabbey/001/rossetacode.ada
https://raw.githubusercontent.com/pastelito02/Challenges-sol/master/Programming/Codeabbey/001/rosettacode.arc
https://raw.githubusercontent.com/pastelito02/Challenges-sol/master/Programming/Codeabbey/001/rosettacode.bf
https://raw.githubusercontent.com/RyanLafferty/CodeAbbey/master/p1.c
https://raw.githubusercontent.com/wscevpc/Cobol/master/cbl/covid010.cbl
https://raw.githubusercontent.com/gravoo/codeabbey/master/Sum%20%22A%2BB%22.cpp
https://raw.githubusercontent.com/Tempurturtul/CodeAbbey/master/C%23/Sum.cs
https://raw.githubusercontent.com/pastelito02/Challenges-sol/master/Programming/Codeabbey/001/rpsettacode.dgn
https://raw.githubusercontent.com/pastelito02/Challenges-sol/master/Programming/Codeabbey/001/rosettacode.e
https://raw.githubusercontent.com/skilled19/sols/master/eldanielcr-01-sum-ofab.fs
https://raw.githubusercontent.com/pastelito02/Challenges-sol/master/Programming/Codeabbey/001/rosettacode.funl
https://raw.githubusercontent.com/schoolo/codeabbey/master/problems/one/main.go
https://raw.githubusercontent.com/pastelito02/Challenges-sol/master/Programming/Codeabbey/001/rosettacode.groovy
https://raw.githubusercontent.com/pastelito02/Challenges-sol/master/Programming/Codeabbey/001/rosettacode.hexi
https://raw.githubusercontent.com/bkawan/codeabbey_python/master/problem-1.ipynb
https://raw.githubusercontent.com/meganroche/CodeAbbeySolutions/master/Java/sum_a_b.java
https://raw.githubusercontent.com/skilled19/sols/master/harv/codeabbey-1-sum-of-two.jl
https://raw.githubusercontent.com/jsenne/Code-Abbey-Solutions/master/001_Sum_A%2BB.js
https://raw.githubusercontent.com/pastelito02/Challenges-sol/master/Programming/Codeabbey/001/rosettacode.kg
https://raw.githubusercontent.com/peiandsky/codeabbeyByKotlin/master/src/problems01_10/Problem01_SumAB.kt
https://raw.githubusercontent.com/chriswood/codeabbey/master/ca1.lisp
https://raw.githubusercontent.com/skilled19/sols/master/harv/codeabbey-1-sum-of-two.ml
https://raw.githubusercontent.com/mpeshehonov/Codeabbey/master/practice/%231/index.php
https://raw.githubusercontent.com/skilled19/sols/master/harv/codeabbey-1-sum-of-two.pl
https://raw.githubusercontent.com/vinitkantrod/codeabbey-Solutions-in-Python/master/1_sum_a_plus_b.py
https://raw.githubusercontent.com/kumar91gopi/Algorithms-and-Data-Structures-in-Ruby/master/bitAlgorithms/CountSetBits.rb
https://gitlab.com/CodeArtisan/codeabbey/raw/master/problem_1/solution.rkt
https://raw.githubusercontent.com/YetAnotherMinion/YAMScratch/master/CodeAbbey/rust-sol/src/1.rs
https://raw.githubusercontent.com/mmcdon20/code_abbey/master/src/main/scala/Abbey001.scala
https://raw.githubusercontent.com/DestructHub/ProjectEuler/master/Problem001/Scheme/solution_1.scm
https://raw.githubusercontent.com/DestructHub/ProjectEuler/master/Problem001/Shell/solution_1.sh
https://raw.githubusercontent.com/DestructHub/ProjectEuler/master/Problem001/Swift/solution_1.swift
https://raw.githubusercontent.com/skilled19/sols/master/harv/codeabbey-1-sum-of-two.vb
https://raw.githubusercontent.com/pastelito02/Challenges-sol/master/Programming/Codeabbey/001/rosettacode.applescript
