https://penpester.wordpress.com/2015/06/17/root-me-org-network-challenge-twitter-authentication/
https://www.youtube.com/watch?v=bQcGdI-9Er0
https://catatansiical.blogspot.com/2015/06/writeup-twitter-authentication-root-me.html
https://infostatex.blogspot.com/2017/11/root-me-twitter-password-authentication.html
https://www.securecorp.co.kr/m/16
https://raw.githubusercontent.com/RomaniukVadim/wargaming-challenges/master/RootMe/network/twitter.txt
