https://raw.githubusercontent.com/zimpha/competitive-programming/master/project-euler/volume01/16.cc
https://raw.githubusercontent.com/mishadoff/project-euler/master/src/project_euler/problem016.clj
https://raw.githubusercontent.com/DestructHub/ProjectEuler/master/Problem016/Elixir/solution_1.exs
https://raw.githubusercontent.com/nayuki/Project-Euler-solutions/master/haskell/p016.hs
https://raw.githubusercontent.com/nayuki/Project-Euler-solutions/master/java/p016.java
https://raw.githubusercontent.com/DestructHub/ProjectEuler/master/Problem016/CommonLisp/solution_1.lisp
https://raw.githubusercontent.com/DestructHub/ProjectEuler/master/Problem016/Lua/solution_1.lua
https://raw.githubusercontent.com/DestructHub/ProjectEuler/master/Problem016/Python/solution_1.py
https://raw.githubusercontent.com/DestructHub/ProjectEuler/master/Problem016/Ruby/solution_1.rb
https://raw.githubusercontent.com/zsiciarz/euler.rs/master/src/solutions/problem16.rs
