https://raw.githubusercontent.com/mementum/codeeval/master/02-medium/0228-to-pi-or-not-to-pi/0228-to-pi-or-not-to-pi.cpp
https://raw.githubusercontent.com/mpillar/codeeval/master/1-moderate/to-pi-or-not-to-pi/main.go
https://raw.githubusercontent.com/TheCK/codeChallenges/master/codeEval/src/main/java/org/ck/codeEval/medium/topiornottopi/Main.java
https://raw.githubusercontent.com/mementum/codeeval/master/02-medium/0228-to-pi-or-not-to-pi/0228-to-pi-or-not-to-pi.py
https://gist.githubusercontent.com/ianpugh/ee318feac91caa1500b7/raw/34afa5596f9c27ce13968b7e5f8f58bea9791d49/pi.rb
