17
14121242341323244
43424412212134213
34423123133242224
44332231243211222
22344232242342411
24312444343123341
31332134221243134
21314142234232213
33113314213231323
32333313424212122
42242214323213244
42314244214241234
41121442222411142
12433114441412423
13434212122224332
11212214142323421
12122242442334331
84
3 7, 8 0, 13 16, 4 5, 12 5, 11 1, 5 9, 3 8, 16 13, 15 13, 10 6, 8 5, 5 7, 9 9, 4 2, 6 6, 11 13, 9 5, 14 10, 14 7, 1 8, 11 3, 2 8, 16 1, 11 6, 0 4, 4 5, 11 3, 0 2, 3 3, 7 9, 13 0, 9 2, 8 5, 2 2, 16 3, 14 6, 11 3, 9 3, 1 3, 8 0, 8 6, 9 0, 5 6, 6 6, 13 7, 2 3, 14 8, 15 3, 1 1, 11 0, 6 5, 11 0, 8 1, 11 1, 7 1, 10 0, 15 1, 3 1, 12 5, 13 2, 6 0, 5 1, 11 0, 9 0, 5 1, 10 3, 11 1, 10 0, 8 0, 1 2, 6 0, 2 1, 0 1, 0 1, 1 3, 3 0, 5 0, 3 1, 0 0, 1 0, 0 0, 0 0, 0 0
