https://raw.githubusercontent.com/KristaTheCoder/HackerRank/master/%5BEasy%5DCut%20the%20Sticks.R
https://raw.githubusercontent.com/ozan/solutions/master/hackerrank/cut-the-sticks.c
https://raw.githubusercontent.com/ShrikantJadhav/HackerRank-Solutions/master/CutTheSticks.cpp
https://raw.githubusercontent.com/RyanFehr/HackerRank/master/Algorithms/Implementation/Cut%20the%20sticks/Solution.cs
https://raw.githubusercontent.com/charles-wangkai/hackerrank/master/cut-the-sticks/Solution.java
https://raw.githubusercontent.com/PaulNoth/hackerrank/master/practice/algorithms/implementation/cut_the_sticks/CutTheSticks.js
https://raw.githubusercontent.com/rahulraghavendhra/HackerRank-Python/master/cut_the_sticks.py
https://raw.githubusercontent.com/PaulNoth/hackerrank/master/practice/algorithms/implementation/cut_the_sticks/cut_the_sticks.rb
https://raw.githubusercontent.com/PaulNoth/hackerrank/master/practice/algorithms/implementation/cut_the_sticks/CutTheSticks.scala
https://raw.githubusercontent.com/witekbobrowski/HackerRank/master/Algorithms/Implementation/cut-the-sticks.swift
https://gist.githubusercontent.com/oscarbatlle/bba38370cf3c0b92c212/raw/d376b10b707f880422845d3002aee1030e2d350b/cut-the-sticks2
