https://raw.githubusercontent.com/mpillar/codeeval/master/1-moderate/lowest-common-ancestor/LowestCommonAncestor.java
https://raw.githubusercontent.com/pascal-bourut/codeeval-challenges/master/moderate/11%20-%20Lowest%20Common%20Ancestor/11.js
https://raw.githubusercontent.com/pascal-bourut/codeeval-challenges/master/moderate/11%20-%20Lowest%20Common%20Ancestor/11.php
https://raw.githubusercontent.com/leaen/Codeeval-solutions/master/lowest_common_ancestor.py
