https://cryptocult.wordpress.com/cyber-challenges/enigma-group-solutions/spoofing/
https://raw.githubusercontent.com/ThaWeatherman/eg_solutions/master/basics/spoofing/spoof_2.py
https://raw.githubusercontent.com/djcomidi/enigmagroup/master/basic/spoof/02/solution.txt
