https://raw.githubusercontent.com/nayuki/Project-Euler-solutions/master/haskell/p065.hs
https://raw.githubusercontent.com/nayuki/Project-Euler-solutions/master/java/p065.java
https://raw.githubusercontent.com/sile/euler.rs/master/euler_02/src/problem065.rs
