https://drewadwade.github.io/ctfs/2019/CTFLearnEasy.html
https://www.embeddedhacker.com/2019/12/hacking-walkthrough-ctflearn-misc-easy/
https://github.com/Offliners/CTFlearn-writeup/blob/master/MISC/IP%20Tracer/README.md
