https://raw.githubusercontent.com/FrankKair/polyglot-euler/master/src/005/p005.clj
https://raw.githubusercontent.com/FrankKair/polyglot-euler/master/src/005/p005.cr
https://raw.githubusercontent.com/mattspaulding/hacker-rank/master/HackerRank/ProjectEuler/ProjectEuler005.cs
https://raw.githubusercontent.com/FrankKair/polyglot-euler/master/src/005/p005.exs
https://raw.githubusercontent.com/FrankKair/polyglot-euler/master/src/005/p005.go
https://raw.githubusercontent.com/FrankKair/polyglot-euler/master/src/005/p005.hs
https://raw.githubusercontent.com/FrankKair/polyglot-euler/master/src/005/p005.lua
https://raw.githubusercontent.com/FrankKair/polyglot-euler/master/src/005/p005.py
https://raw.githubusercontent.com/FrankKair/polyglot-euler/master/src/005/p005.rb
https://raw.githubusercontent.com/FrankKair/polyglot-euler/master/src/005/p005.rs
https://raw.githubusercontent.com/FrankKair/polyglot-euler/master/src/005/p005.scala
