http://sp4hack.blogspot.com/2012/10/hack-this-site-stego-6.html
https://hackthissitesoltution.wordpress.com/2011/01/14/stego-missions/
https://www.youtube.com/watch?v=AjzQy___jtc
https://github.com/divyanshusahu/HackThisSite/tree/master/Stego#mission-6
