5750
1ndaxwo
dwb0rv
owwp0u
1mj003k
tedh4b
l5zph4
1hd5aq0
klmx6u
1hr5s91
116hrty
1hln9nn
1im8wpq
ifjsvh
1k4lwy9
y9xi44
1mbu6pt
i2toug
1kefmd7
k0m6a4
blmnw0
cvlk15
1fd91zs
id1p3g
1hvl7l1
sunk8r
mqs4xs
k88nhg
cvlpgr
k0nnhy
pel3l5
kmddzl
1cflps6
mhqkqi
1i96el3
1ev4wlc
15vrek4
dwjcjd
hsngg9
1fdamir
1j3fq1
1kbk4sj
10iu9bu
1ksrtpk
csp91e
m2d98y
1mw7y7c
1l8iz4m
1jp4j7y
stvx2k
1fe8zmr
1i96jd4
ies6tk
1fc0gef
aocr09
rbxgtv
nch0jd
1cflqul
196q4zr
1ic2dls
w08zk6
13yjw0u
q0aunk
1lyupzb
ph4yj2
k89vts
6ndq0o
1cfkwaj
cymvtj
1k3ru3v
jgpgr2
1hd23tk
it9avv
1i7g9yv
1izviok
brerwi
1jwy11
1cflha1
dvpycp
1k39j29
hvys6f
q3uqre
1dnc7ip
1feff50
1hfjrtl
1i6z0cc
dvquy6
ies9sj
abx0y9
iu59tw
kmj9of
1fdixke
k8a2yy
k0m8sl
1i2d59w
1fc0udk
1mql1l
slda5t
1c7z5ds
slgkf3
q09uws
1mmjruk
k90niw
1hnx7o7
isr71y
bm24gp
1hwo1k2
m2dd0v
1ic2qid
na0lbh
1o5bh9e
l608ji
1mhedj1
1khp070
1kb0bn0
1c8dgbs
1fc8uli
1iccn6h
1m0qopf
1n7tsz9
rbxvzn
ph9wu6
1cflhc6
8u3sgk
1izewiv
l605x6
iu6cl0
1c96olp
1keevc3
1mkhtsp
su3vd4
6p9wu7
1hpc6co
1lcsovt
kln4c7
1j8li2r
1nc66rn
abwcq2
1kf6izk
1pryjf5
ubfyy2
he2w42
ot4jjc
1kbcubt
kmjpha
hmy9nu
1hpbzbb
k0m28o
dwb62n
1i03l6n
1kno63g
1mci6w2
1i6w967
anx4rt
1mki8gl
kmjgy3
1au5u0v
lfr5a4
dwj9ki
1jluwk0
nlq7gx
i3ly68
1hqfcjj
1l4xpli
6hb16i
1454n7j
ol3sjd
dwct7v
1hj6a0u
1m21nyv
1mj3zve
ij1k2u
hdjtfm
1fcvfey
1m0rgpq
k0m2uz
dvpzkp
jh2jw2
kmjx2q
1m6722v
17k9fej
nmpvgv
rby4jl
1mye1rx
q5tpto
1m66wwy
8s9c9r
pgrd7m
k0m8c6
11h97be
od2gz0
n7t761
1ic2wif
1mkgsvg
dz8z9z
nco22t
1fhg14
1o18kt6
1mhtypr
1hiw0am
1o44do5
1khpnbm
1m21k3p
1iwtprk
pshxh3
6np8bl
h9cz6w
jbk81d
1cwnldc
1k3zf60
1i9e70i
nk97d8
1km662n
1o196s0
1l4wf4g
1m9uwd9
1fcjlnk
pgrfo3
13ec61q
acluvp
mhsbh4
cswy1h
pi7h3o
oww8ym
1myfz9q
klmwbu
hru7bg
1ia00lf
1hvloli
1jg17ud
1ocvhsr
i83s6d
it96g9
vdw32h
1kelnml
196qo2v
1mkftt5
1hscu1d
1hurrqr
18qlyet
1k39qk5
1cflwio
jbyn75
hf40lw
nqe0lv
18mqpza
1ic3gtl
1bh2xig
1fd1vuk
1milzyf
1hqdo93
1fd39bs
k89qdf
1mkf60u
1dkclla
1kl3bjf
k89s4c
bsrj4
1lsqveh
k88udc
dwnlun
13t1q5f
ky1q3e
1i6gvnb
1mmfsq9
pi1gvs
blmqh3
1i8znbl
1mkfoli
lsi8oc
ierzxz
1pwdslz
16uxyin
1gcch3y
1l5d65m
cvlm09
1cfevvj
1i46w4i
6m8hxu
1o4kt2r
1cfm37y
dwaqhc
1hyyzdi
q0cdts
dwbony
q3v6sz
nxg8qf
1lcy9dj
1hj9a8e
1bzhstd
1i46x84
1lnu251
1i6wvyh
gj9vii
1ge1v8v
mib2m0
1m7qldt
1kab17r
q6ws2p
sl6qqt
k0m1oh
1hpcla4
1li1uni
ijoynv
1n9wmmj
k88xzx
mnedp6
lfrfqz
m21rci
1hmraqm
jc2fac
1hvl7eo
verzyk
1kay645
1dkc414
1cflvmp
1cfkv7r
pgk42p
k1cx59
1hia7wn
1dqgadi
1lwqm43
k0mc94
1mmkwmp
1ev51j3
1hv3ni6
1mkh3y4
1mmk7h3
1dmfo2d
1c7zp5s
jgpbwq
18a11jr
k89ry4
1i9gl51
ky3rx6
1det3df
1mtfmbr
1jkvc7v
pgqydd
1hpbr13
l5zvgw
1n9cu1e
1f64c55
1js8zs
p4xd7n
l60dbe
1nd89ba
mgtk3d
1kfaawk
1hojfiv
1lm30i1
suiyol
iu54v9
d1cdkc
ies882
1mkg6nh
1m5c8um
pdqeu4
ubq28w
1fc6e41
1hrns23
1hkpagh
1jj06es
ies1t1
1cfl21r
1hg3hhl
n4x2vc
hf4u6t
1nzvbn0
1nbxc4z
phdxzf
angqez
stvhlq
1mkeod4
1h9vcii
qifi1a
1dfa394
1hq82rg
1ndc4v1
1hsp1rw
dwjax6
1jkx7xw
ies6kf
1kchwwn
pgrq37
q3uomf
1c7zmmy
hcjrzm
1i6gdjk
1f62flk
ijp6r4
dvqq1y
phgodo
1hyiu57
j5wlv1
pgpz9l
1co5wbb
1mkdxg8
suepwf
it9dfx
aciggy
ydswvs
1milhnq
ph4zg5
dvqaii
sufume
ot69od
1ic46km
1fc2jsu
1gca7hz
it9atb
rbxwg4
1hgo4vi
ck1470
1kaeoeh
oi8ead
1lwb9dz
1mkh0w6
ph9ovz
ph0de3
1cfkvrj
1ib9bcg
iesahc
1fcekq1
angxkf
1kcib0i
hempwd
iesadh
kmiudd
1mj00pz
1k43p3a
1kbnpuj
1hd5czm
dvqowg
zwd0g5
dvq28h
1i9k4ln
bfrwbn
12ieccf
1hp86ax
kln31f
i7yppp
6r6p0j
6mk8a8
smd9di
1hb5c67
hsqkz1
i2thtm
1hl8gbl
1hg20yl
na04zs
phh76m
1li7n1i
1m0qrwh
1l1kjd0
uhvzor
1i5sw56
1mkgn3p
jgp1o5
j7lr2x
pidaet
q08y8l
nbhdvk
it51u8
1i1eu0e
1ferts7
1mmjr3t
w9at1t
nlizno
1khn9xv
1gumkd1
1k8qk1x
omr456
bgdkd2
1kjmfrf
1n6yjnc
i217io
l60auz
hej94e
1i6gd4e
1nd21a9
16gw984
mwmlp9
1fc6ao8
1fdn9e0
iellk1
dvqq7n
1heoeau
dwarb2
1ho50rk
kmj9jg
1q481ou
jc2g9l
phou9d
1kus1kw
aeludp
gxvt7g
1cwk9vc
8u9984
wuj6df
slv9kz
helpaa
1fdfyf5
k1ctx0
1ibn4b7
1hhs8wy
1gq71q3
g5x4r9
1l9k9cu
dvq7sc
ies9t5
1mkg9gz
1kefp17
1i046kq
dwavzb
1hkx0q9
whaghe
1f64arn
owwo66
1mmfovx
1l3wpyg
1mj352f
dvq021
bgdmvp
1iawpta
191yxnr
nv01m1
1nb5t0y
1mkfa9u
gxmoku
mws2b6
1mbyh7u
1mc6ij0
1c97rib
it978b
jgpm50
k0m8u8
aibkr5
6gz5uo
1nsmxe
bm8wnf
dwbqls
1mmfhhj
1i8l2c8
k89ts7
hriawu
1hsdxdn
hsmh93
q0fk2l
1jm9jr
10cif1n
1i8u1fj
1k4vttx
1cwggjn
ai2jt9
1hvlp62
1mj38y3
1hzkg9w
1hb8jdw
1fcn5hw
1ev4osn
1o18sub
1mkgqs4
1dfawvj
1i5o1wi
6nijel
hg98kd
aiaipe
ydjstd
jgpcbr
n6kb8b
28sbmc
415q0a
1ki7kmm
8rgh36
1o2owya
isrkx0
1hb0g8q
1ltlne1
3jtqa9
1ken603
q3urbu
1dgvk76
k88t3o
1kbbgyb
nsl93x
p07e8j
k89rfc
qiwnqe
1hf58l5
abwksk
1iwsuii
jgp5al
dz8ewr
wknshr
hslvu3
phl2re
stsdu7
1dgvl0m
1httwjq
1fepj98
kmite0
1262g5g
18p1uhj
1n7pzfa
1hk6lio
13njvz2
php6ka
it99iw
muwyz1
dwctn8
stnmsi
abx6eo
lmaro3
129rw04
1d1y799
phyf7u
1dfb4wx
knn5bq
1cwn5jw
1ic4eqg
bl00dj
1fdio1x
1f629r6
k0gctz
1fdm7if
1hkheky
1mxsai
su6dd5
hsn2ik
1cuf1ad
1kb6loq
abx4bw
1jakbdz
dwc7s5
17omn52
1cfkw14
mbvu3e
1fe0tmn
ph4roh
slcror
im4hk9
ot1z1p
iu5yqq
phkdjl
6h0cgt
dwcznv
dz8td4
1hzhiqi
iu61cw
jzc0di
sm14kt
1f64rpl
dwd136
1mj00qz
1cy3lsh
1hcsf7m
6nfzk7
1i6qspo
1fcxvor
hay753
6ng1lc
1hlj7gn
1fe1vcc
1i6r7cn
1ocpe0x
1hkq8bh
jgkio0
1c7zn4o
1ha268e
3zsdk5
uhj0uw
1mmfl2x
1ic32eu
1jhzys5
dwchkp
1hdxea3
1cv4aq6
196rum2
1fdt940
j5viji
ht7wci
1mmg63z
1feb15r
1i681vj
hua8p5
1gu1955
1hvlsh4
1mmfj66
1gfiifw
nkzmfb
1i6gf8r
1nsry8
itonw9
m9qsji
phq9r7
1iccwcb
hba9xa
1cfkz5f
mwraqx
1cfm3w6
lm9j23
1lntwqx
dvq32l
1fe9iev
dwbslz
dxns3u
1c9wrss
1n1c1j6
1efcttf
ph8xdg
1fdpdne
1hipjm0
1ie9c6f
nzcybv
l5zyar
1nauseh
1c93hno
jgp6lv
dwcfjj
pdqe9a
1mkhvtm
1fcf8o8
supk8t
ij1pbc
dwc15h
irge4l
1mkgeu0
1mxbo1z
jc1zqw
lg3x7f
dwjdf1
t1dhse
1mkfe02
1mmgs6j
1e1d6yw
1dj58c2
1k8iffl
pdqdv9
1mkcz3r
pdqdpd
1mhn7wx
1hu4gv5
1f63qug
1kpn91l
1n1f1nj
it9dox
15rcdvu
1id3nbk
1kayx0i
ky3v94
cvm40r
1idqchc
sl3ujq
slg5ju
1mkftul
1ecilk
hquye7
1ixfjue
hcjv1y
1m1qdce
hungus
1k6s5l5
smal0z
1f64dr3
1mpa9x
1odrewe
pi9lun
1hkkwtn
1hdvgp5
slg3pb
bgl8l5
19jqifp
m103gq
hru57u
cvm4g2
qbxy2r
14x6mab
k88sxv
1iw76x3
dwbspb
k0fqkk
abwkk0
hvvs6t
vzfh7i
oq874a
6huc6u
1i4cmm9
1cvu860
phvwco
1i5hyrw
ierzw8
sugia9
1mmksxk
1kbp5mp
1fcsawk
k88u5a
1husbmn
dvpk6t
pi0sb4
1mysx36
10gffon
1dfawxz
1mqurgt
jgkhfw
138j4uz
k0mhkd
1mbjasg
196cvv3
1cwwopw
lo383t
1ljzgqy
nbx6sw
1hzeu96
nebooz
jgpebr
1cfm3ug
1ia589y
pic2nj
mz4sxt
dvqn6a
1hhjmy9
1hy839n
k89zw5
1hcrid8
dwjbnq
l60bjq
klmzav
15ma03a
1jhdo47
1m9uuwk
1dfa377
k0ml3n
1m66kwj
1mitwpx
1mkeih4
1fdg6uf
1c8rffz
n7n34o
1er8atm
1jhra89
1kiqayy
jgkgge
k0maqa
dvqbjg
hzlpx7
aab22q
id9b0u
1i6gxux
1l7lj14
i7pwo0
sumd99
h9ku5m
1heofo3
1o1aw1v
k90o1j
dwc2ql
1oqnxxn
1hb72wi
1kem1hm
ite47r
m7g23z
14neygu
1hpd26e
8m6igb
aajnje
1cflj8o
1hzkevr
1ov1voi
k8uoy2
1dn97w5
1mfqt9v
npozxt
1f64bdz
1i78puo
1gcc4cf
dz84o4
m3um27
1j7ub9
pgvfo2
1i67ok3
klmvqn
dwart0
pdqc1s
1jhzhwx
dvpndx
1kaeucw
jbmq7g
m1rq54
1jevhf2
1kg4a6q
ies0cl
1d2q7au
1fdgjay
1o7tren
huadjw
1nd56en
1lh2bij
1of6nig
1c7txhk
irgf9p
kmjicu
6eio8y
w3ztu6
k89kji
1ecknd
1icdcw8
oq6158
1hdlsml
sujedb
1o8fhb4
kmjtor
1feu9ed
q0fqw7
1nd1yyf
1n7vzdu
1k26g50
1lnu2z1
1dmh0uj
138iutl
1m21kqg
cvlqo7
ubn2fx
bl0ww9
yqx0wh
15l15bk
kmj4ef
1he6kg3
pif39u
k0m69g
1mit7b0
1i9juww
28hor0
1dfaskj
yohl65
iu6ca9
1dqh6a8
afipk4
lg0so7
1cfl1ii
m3sjy1
1fhdi1
dvpweq
1cfltbq
sl4deb
1desbtn
nk62fk
1ic4tj0
1mhuaxm
1hfo09z
bl3xpw
196nvmx
jgqpnn
1k44qvh
1kgfgqb
1kf62az
1i4m17s
1dfb9uz
jbdqgr
1j9uaql
1mkgeh0
nr9gvf
1i6qkv7
1hqy517
1ho4xgm
abutmw
1o5pv9t
1mc7f92
1i2d47f
hu98vy
1o2or5b
l5zr8n
1i6qbgh
kmj22q
1mkhs9u
kr69u8
jgqru2
skzzma
1k3a2x1
1hzskkv
inhv0y
1he7k25
stot40
lmlryv
1iexat4
nix13j
1kblzhy
1mkessl
1iay29n
1mmfhu7
1hb66q3
1kskzxb
1ic4gdq
ai8j2z
1obwl9f
bm274s
1mmg8om
pznp1j
muttba
1nbqrc0
1fonw0
na03qg
iu6bk9
bm25pz
1mc699s
1j803zh
qchznb
i0ph4f
1of53na
phogy3
sl6m59
1dfay1f
1hk6wig
1o1avyx
1df93mk
1ibip1i
sud6kb
1cfla1i
1mimyl8
stmpqi
px4b8z
1hz6eaz
1o4khii
xzmf46
nlgox6
1k2asjs
1d24z45
na0exm
1hdqwlu
mkozug
1km695q
1hchn6j
sw9x2h
1cfl8jk
1k3a2ya
1cfl77s
psi3e9
1ib9vx4
1mkhqaf
1kbjmob
1my2d0u
1c7zmf5
kmjy2l
t1s09i
1fdutg7
lmjalk
1o67imc
cvm3ub
6mvzag
lfrhru
1kb1f7h
1k3dzfn
1feskl5
1fgspj
1mkem1o
1m0bzew
1khz6rm
1hh9g2v
it995y
1kger69
1m33opg
ph6wrz
1i6wje5
1hxzaxh
1fhb5w
1lwq67s
1mijiu8
1izwkz6
irg5gh
1mx4lxo
cvm567
1hl6bft
jgp9bl
sl2pgu
1hlofy1
dvqaas
1l8jbv9
1ecdgu
ank7ov
1kot0k6
bm27fi
yfsqgv
6i1gup
iu15wv
1iccpt6
1cyvmdk
1o4vc0c
1hb4g8h
q0c87e
lt2cmo
1lekv1r
1mv8s2i
ahl0sb
1lntoa2
nyw7vm
1iqbfo5
17wi6zl
amreoa
1cff2y4
1n57s4j
hvtp0f
1i2ddh8
1jhqyia
1bgkpbc
k0m93p
1m7qc3f
nm1ghc
1kpakby
1i65lsw
1n1c0jf
1cy03f4
it99lk
jgpn0i
1htvp4r
1ld58ho
1jhmwqv
1dew28i
nbx286
1mkfark
1c7zvfd
1ki32lr
1hhscka
mcxcad
mejdvl
bm25s6
1kgeu6e
su9d9r
1k6skh0
1ic9mkt
klmu05
dwc08f
lfrheu
1e1467k
dvqobu
1m1yf5t
1cflblc
1n98t9l
phftmy
1mkggir
1k39kin
1hya6mj
15fvgmj
1kellj7
1l46v2l
smcplq
irg5mv
1m7qkaj
nxg6ww
ies6tn
k1csc0
l5zztz
1i6gjb6
1hsi75t
1k3bn28
k0mhok
ao1t5j
1havuho
1i6qkea
1mkfjg7
17mro6v
1hvb161
ik63ay
j6cejg
ht4nq4
1hd20c4
1iaag0t
6njhi2
jgpkqm
jgplcd
8t7iap
1mkidfp
1fcfuui
1jz6epv
1cyme8s
dvq11u
k0mgcf
1j7nac
1he316a
cxukwt
1hrr0bd
6njiav
1kgcuho
1lahqvt
kln1ol
1mr1mr
irg5yg
na03ib
l60dgx
ot5vhy
m9sk0g
iu4hfb
1hdvh7o
1key6pc
jzma2d
ughdkj
1mj3dk5
1i874bo
mwn981
1fe8qyk
1hfpp57
lmho7j
1i6go1y
sw9r7q
suhqct
1n6yjmu
slexkm
1i3fd8r
dvpoxo
angi34
13njzf4
1k424h9
it9419
pi0nub
1k36ume
1cfmomk
oif4kg
wghv5x
ck0dt3
l5zwsu
1kcvc7q
yinenm
1e736s9
1gcc2ah
15vseoi
8t7323
hemg71
1mkgezq
12ialtf
rbxfgj
pi82h0
php3qf
1fcgvf5
kmj7yv
1k39i8s
kln25z
ha9kvz
1kbwmig
l62ejy
pi5elx
1o2ow33
1mkian1
1gwjgwx
1k6ihzv
1i6gotg
iu5fmg
1i5sqf6
1i9f79q
10a2o6c
1i2cjnv
slvasi
1cxvn3u
1cflodp
ango5m
1gqc1lc
1jlx1hs
nbyfqk
1kenv91
15g8ul0
1ljfs3g
d15ss3
1o4viuv
1hktsmw
ahlm3a
1lhgg2t
1fdxk4m
1g8pypd
nbhrn2
1icxryd
1i9073s
1g0r83
dwboua
1fem1tv
klmx56
dvq1pp
jgp5hx
owwmiz
cvllt9
1f7xzqo
slll9y
dwj48c
1hw6mwh
k0me58
1cfl29l
hvynxy
1cflizn
1hm4f0k
1c7tya8
1l8jecr
1km61b5
nxdeqt
gxv22d
jgpajr
phglln
dwbevj
o96okt
1k509yv
1oajhmc
1eh33cv
isrc48
dvq5hp
piawf5
1j8yzy
1ncbf8b
1egr96c
1j06xo2
isr9xv
ii7l9d
1jaje3d
1i092qg
1hpcl5s
1fd778g
dvqi23
ugsc0r
1dfawt6
1mj3dj6
dwbln2
abux02
1na4onj
mg40x0
ieldh2
1ic4hmf
1icyger
w331p8
1fc7e72
1ncb0xv
14pkr2w
1kgf44l
1i6716g
slofdz
1id99ra
1i6uy7q
1mkg8y1
it94pq
1hwgydh
1lswkli
acf1bl
1hbfhnd
1f63s2t
pwnbsa
1mkg3bm
k1cwc2
1fgt10
c6xvdu
1odfes6
1j81ak5
jgoz8u
dz9b2j
dvqb7v
k0mo8e
pi7hks
8qrhc2
1k2yoim
1nc0z6e
xbt5c7
1k2p0rx
zo15qs
1mkg3gp
smaagd
1i9jfsi
1cflvju
ky2oz1
6mk81m
1dfvvrg
l5zp6k
1hqg10e
j8qy8j
1o2or5w
pgypnz
k0m5zo
1mkeu2z
1fgsj2
dwar52
jgpd6m
1l3pxa8
1mj38ia
1ic4ssb
aby9t5
1khnbov
jbo5gf
kr6jmf
1obwif5
1m0d2wk
mg44ck
1naydta
1i3f7id
16t4fmv
1gcamr
dwbq6n
6ehslm
1myt19q
1cfl89p
jgp7ka
1mkexzx
abuupc
md15e6
1hlgcai
lmqmnx
nbmx12
1htu0gm
1kd1p34
dvpzqu
19zpa50
dwcoxg
1cfla7o
k88wvp
1mj500l
y0ksug
1cvag9e
pd5bvp
k88qqj
hej6oy
aofplz
1n02jtk
1ka6e1j
mgr8ln
1hbyrzq
1ibixqp
it61ws
csnz92
k0mj9s
xmx2kw
1jwyj1
1miosud
ielaxu
1cyrou6
q3urs7
bm98ox
1fd8yrn
m1elir
ai2jdy
1i7jjsp
1k3xz0i
1ncbqiz
1kdxdwd
k0mhez
1mhtx3d
abuu1d
1ic5pfm
jgpmxi
1l8k24p
hejcnb
dvpm5t
pgq0xx
stpvz4
1dqcgdy
1mkfkxx
1mkh924
hu92o9
1j7stt
jgpesv
lfqyjd
1kicun3
1dfautx
l609v4
1hb1qid
1hf7cog
mz2nzm
1kdv75x
ovdrlj
jzz3jk
1lcgd99
1o19q7w
1hpc64o
1hfnvxa
1loy5y
q8ic0o
1mxtn3r
1f63thx
6njho6
sle3fl
c7gsvd
1hezsgj
cyb7s3
k89sr0
abwvft
amah29
dwbxfn
1knni60
1k7lpil
1mmfx0t
dwjcgi
1l9au5l
1mc63m4
1nbr35t
k1czjt
1cfm3ak
1mk9ioa
n4ym02
pi0ezi
1dfb5e4
1o8alco
7lv5bp
k1cyuf
1mg6lo9
1dfay4o
1k8fovc
1hnxgup
ai0mb4
dwbhpt
1m3pupj
l601vt
1dqg60n
hwdsnj
jgp1dm
lgvfwz
1fe8dcd
1cfl2rq
1ic4xvn
k89mlp
1cflj4k
1mkf1iv
c71540
heupjj
1o19j99
l60610
1i2dcda
jbypdt
ph21rd
ielfod
1nya8uq
vl0ih6
ijp1zr
1i6gwps
hec33u
1i30ij3
hroxei
k0mc8p
1d2t2f1
1mkgmma
1hx8vun
cvm2eg
1mkhni4
1i6ggvq
mvgk38
k0mc0w
1hxxfum
17kzd0o
1d2fe0p
1hkx895
abw7gf
itnc0z
knub0v
1mbycvv
dvqlut
adg0ew
jcwttd
1nbqznq
btm75g
1dpmuf0
vdju0p
ovdpvc
dvqx34
dwc8t5
k0m8yg
1oqljty
dwcd11
1nc5c44
ky1pim
hf4zpg
bm7dur
ugtgni
1k4quqe
l5zpiw
hflz72
1mfjivr
1obwk1y
hrvnnp
ii7ddr
13qg4o6
jgpdps
yn34dk
ielb84
hycwlv
6pvyrq
ii7q95
1l1k51l
1mkguqq
1fcos5x
1k6u8qz
1m6683e
1kcnlpc
qbwgei
k0mgji
l5zwcf
1fe1bqd
1j4zkx
ncyky6
1d62g1v
1feo2vg
1cyvyne
isqqbh
1k36sf1
1i6wvzu
1hvlneh
1mkh45d
1fe9clr
1l7lowr
jzby55
1mj5cdb
mqs766
1mj3fiy
1ecfka
1fds5s2
pyz0wp
1mkh3hp
phi8xx
h9zpe6
17tz9nu
1d21712
6w4p83
19v7cix
mwhbw7
k1cyl4
1i24imu
lheau6
q3v46u
cwthwa
1n4ua59
1mhy39s
lgvfuc
bg0mud
jbme4g
1fcp161
lfrfx6
mg455q
6nikod
hro6t7
1df8u6x
he0ru6
w1mbth
6lvswj
dxnt8e
15qhkaw
mgo3kb
1mj3a1t
pdqcmv
1m8bfem
1hvlhte
1kbaw66
1lolnyp
dz8s57
na0gdo
1hfy4na
1m0rbwb
dwddo4
jgplzf
pkihlx
jgozyo
1hfmzq5
q7s4km
hcl35q
qclm1e
1mbtwf3
lgazgd
m9ornc
1mtoa4o
1i75l6o
1i2db75
1hzjecd
heirh2
j6073s
kmj1bp
1i147qb
afioe4
ihgq1x
1cfls34
1iccz78
lsi6ai
kln06h
1hg4648
1dfa8o8
y8gkei
1dgvl1a
1i1xr9l
1hbdsvs
ko4n25
ai7iev
1hflhdj
1hbjf0k
1m5ydqj
1ejtypc
dwardq
10vg0p9
kln0lg
dqh0w9
1kpbqcm
1df9oux
l98oj5
hvyujt
dz8d4l
nahv7y
1m3aq35
dvq1h1
1lowpvk
m9z65b
1hvlkm6
1kbff7i
p42xb5
abeo2t
1kbfk2i
k0mjhc
dvqmti
rbxqng
138cyli
hfhhwz
lmj8hj
rbxnoy
kmj94f
1hhkhsd
dvqj70
1c7zncf
1hpdsm0
1imho9z
1mc63zb
q0f9vs
qerezo
kmjp0g
m1g6zl
vos1a7
1fd1gzq
su39b2
1i8762h
1hpcchx
na023p
1hqz5ui
n6n218
1k21n5x
k0m4hw
k0m3ni
1jhwc9e
stona7
ies87c
1li1xl6
mh1vri
per0bw
1oalw90
k0m6h0
myv2ps
1hbhtdy
l5zxqi
kmjswg
1e72x3k
1ndkruf
pgp9vi
1ka13gz
8qodec
1l95lef
jgqvak
aoc6en
ufq4kv
1iyn5vc
kmitsz
1hxy757
1kelni8
pi550f
1jkvb2l
ai2jbd
1he6cz0
it9ag1
12pzgta
hu9gyk
1hzsuvg
hecb6m
l601xu
hvyt5d
k1czi2
1o1w2e1
an0gw9
hsmh3m
pdq9ks
1hnx41p
1cfmmzt
1hkkter
1khncye
1cytkyr
1o5os5i
1fe4ljc
1mqrzj
1mkfcmy
1fcffe9
itktfq
1fekm88
mejjga
1fccebb
1keou7k
pdqa59
11b5eoo
1n57mwi
mw501i
1hqoip4
j4eghp
1fnzi7
1ecikv
l608hs
1hflg8z
nm0r8n
ph0yfm
1k39m2u
1huturp
ii7m3v
k1cuyt
afioja
1mkh3qu
sm0w30
aocqye
dwbcd5
1mgeg9s
1mv4vmh
1lln72m
sw9rwx
1oedscz
idlfsz
1evbphy
gxvvrv
k0m2m6
1obwqqa
sl1k0m
dz8oar
1l8jweh
sm9lif
1feh7sf
gvnr8c
infr7g
opnp9c
1lh24tk
1keuaeh
dwaqch
1mixcyu
c70zgu
1hb8wrw
i2t6gy
1mdcx09
1cfmp3z
1apdm07
ii7bmf
1ndktzz
nupycx
1fc3cps
1hlhhaq
lsfwzy
iu363n
slyg9n
1hvlaxh
1hyiito
dwam62
1mkfhaa
sl7vhj
1m0d23b
1e1e50y
1hiljpo
jazv38
aibj9e
dz8q3h
1cuf3id
1j7zoi
1i5rjmz
pgx1t9
k89vm4
j5loor
dwjbcq
1j8p4o
1meqstq
ky3rus
k0gggt
i2trx5
ihir1e
l5zoxw
6mznzv
n7ruf7
1lg23xm
1hvrh1o
oeiryt
1mkeg7u
1fcwqg9
h9x6gm
lfrfpz
abwpre
1l8w9ne
1mkf9nr
k0m5ip
1m0qqv6
1mkeso3
1ki3292
1ken1l3
j4dn1b
dwbunh
inepfr
k89j2i
1idn8tk
niwfja
cvm2w6
1k60gtk
gx03de
1cff4bp
j7lzrb
1fej7oq
1m7q9a5
1hqya56
h87mde
m2m6wp
8lulaj
1n3tlce
ui046w
1j3kcr
1cflsge
1j8yjc
1hwwtks
k1ctcj
jgozx3
1ndjg17
k0m8t8
dvpu8n
nk66p8
irg9ov
hel6bf
k88rlc
1fc782a
16gl2v5
suax8y
ai925f
1i8l6pk
abwmvz
1hpc6ri
hehlnt
1hvsyhm
1k3ct4z
slm2j3
1fe2w7g
1mhu7t1
it9agf
1mmkr7j
1hfyq80
1m21rjz
188sud6
ky2zxm
1ic398g
1cfl058
c6yehj
1hlhtoc
iat5pi
pia2yc
ifvs5i
dvq37i
17ylap3
1hurw83
cvlkmb
1ndl2hn
10s9d2u
q07fn9
1cflacl
1hfaezi
dvpk5n
iu5et2
j7ls2w
nr7m2r
abwq83
1k2eei7
bmzrhd
1hro5hv
1ic49wg
1dfb5r0
nxgbvn
mi1rid
15rd9or
stq4hi
lgvg8n
k89xp5
1g9jr0x
jbrhv2
1857h9x
if6nl7
1i6w4gd
dwcg4z
sulne0
1iu040d
k90ehi
pi8ddu
1kcr1n9
ies1u5
1i1e7l
1ncb3wv
cswzot
j7lz4s
1dfbb07
1hdfvwm
6gzu62
h8wrhn
1i96m9l
1ev5cha
1jmcjaf
1jf3n95
1i1eyym
117x9x1
1m21qek
o8ygzt
ij9cja
116iws6
1obwk5t
1hb1if7
sl8oie
k0m3y6
1kem0e5
1jwy3j
mhs9yj
k89we6
qa6tyw
1i1hkl0
1mkgljw
1odfdyf
1hd2i26
1fgtbi
dvqj3h
nwn6sr
1ki2y9p
xeup15
k0m4lg
1itsm1b
1of8bcn
ies0th
uhxphw
k89gzc
1hc0buw
mj54hx
k0mhs8
hrp36t
ijozpp
m7evwn
jgp2dt
l627fb
ui30xw
1hlwl6a
1ibins7
1mmg1vo
1fesous
1jcleck
humy1j
1i8ufrn
i35sl0
1k39p5q
1fdf09p
1gdcykz
su7dvf
149sn68
1fddvks
1mhuby7
1hsivbc
1f62ix6
p4xbgs
dvqw2p
6mzt68
l5zqcc
aiat5m
mgym6j
1icshwx
pwk0hj
1hft1ky
dvqo03
muun7j
1lmppxf
1fegfi7
hdfdtw
dvqb4q
sufwlm
1hli1c6
1kem8ip
1i6gvit
1nbfswg
1eop8mf
1k3gbci
1gulu4t
adewz3
it97ju
lh87dn
1mkh6nk
qcq5ak
u5rzj9
huo63o
1cflsmn
1cfn70x
id4zsg
1mmfl0u
k88uuz
1i9jewh
1gerrk5
iellb4
1kbq9a0
plf9x7
1lnun3l
stvrd2
n90jzh
1o19542
mbvudi
dz91as
1n74teq
hej7ne
1fdjhfe
1feft0o
1mwhu4s
1gqef02
1k2sy7y
dwcxkk
1c93ke9
it98hf
m2nwtk
slkjv0
hydxiy
1hnghij
dwbnct
1fetf0l
1482hl7
1f64dvo
1oqy2sj
rby4pi
ies6g4
1havw2m
6n0eh2
1n57s3g
cwt53z
ox3c7e
dqw5zc
1nd20om
uwaplw
j5r2mg
y4brxt
abwdj4
n7nh9k
1m7q981
1malaar
1i5hxis
8s95zw
1fde5a2
1fci0za
dvpsr7
1oa7s2y
1hsplyn
1feneax
1k6m42r
1f63pel
1k2a4xh
on4cyq
1i0fxne
1k6x2gx
abwxg5
dwaxr3
l5ztob
1gukfjx
uo7552
rbyjo5
1eu1yf
jgp55k
o9mscc
ies4rr
1feu8d6
nco23e
dvq44w
if0e81
1fd3v86
1ib98pz
6ltwh6
h9y66s
hekxw5
irgez9
dz8s1v
1lglq6l
19a0y6i
1ndjgin
klmu93
1nbf1t6
dwbosh
mvf1fv
1cflelp
stle87
1jwvzn
1ki328h
1i4ow8g
s4vklh
1itxm3x
kmja0v
1m0r4my
1mzxmwz
bm5lzy
ph0vaq
ufiq6j
11h8yyv
1icsiyu
1fep91p
aeyum9
pggs1a
m2mwrk
1ho6dpn
19f6if7
dwj9gm
1fcbzln
1hf5q14
mi1uzs
1km66e0
1jmn3x9
mxx8io
k1ctab
1i8tmxz
dwbq10
1ia6r06
1lowngz
hsm5v0
1kbfmbh
q3us19
1mkficr
oibl0b
k0mb0m
1kenjwt
1fepr99
rbxf2e
1mkhc7b
1fcwgsv
dwbz19
heaxqh
6vt2ug
sl6hmm
1ev5pmo
1oc2tf4
c6vyi1
phacmf
1mmgtwa
1mkgpjq
k1cyw2
helw5x
1m21mdq
oy8i9p
uo4920
uxa2q4
im4r7b
1m0r1fj
sl2kuf
1mu6uux
1n4dfnp
sub8cc
1cflbo0
1fbyfb8
1gcbxo6
ielh9y
id4zll
13tbqn1
kvdf3
roe8vd
1mkgz77
1o1a5ul
sujqs1
1cvask4
mdpe86
1hf0t77
1c7z0u5
1gu2qfu
suet4c
1gtnlik
1krmri0
ij3ycg
pgqg9w
ihpnuz
1k37dc8
k0m9mu
1hbyl5q
1cfl4mp
ph3sfw
1mmkjs1
1i252af
1n5fgpc
1dkc4r8
su5cl3
1fdbfpw
1i40hu7
abuxwl
q0cg79
ma7baq
pxf44x
ies5dp
1fd7xb6
lgvfub
1oqlnsj
it9bsg
1cfla5z
dvpude
lgvg76
1clkstz
1hsiiq4
1cfln23
1hu3fs0
mdpik9
17tzyjm
1nbr035
hqsh0v
1hdr8qq
bpzf7c
1iflqzt
i5nqdp
16bz2tr
npng9l
k0meuw
1mkgch1
dvqq2c
cvlrcl
1fcdx3b
1f64fok
1od65w0
1he3syt
1j878u
1litmxd
nlu8tt
6hydka
1ny6c5n
1i8wv08
k0mnhh
heq9ts
k89x75
1femn38
c6y4km
1cfl323
1fdjcnv
1dm9d87
1k299uk
vluvr0
1hg6663
15vr4mw
1f64baz
1l8jdf9
1m3a4sd
l6006w
1dgvj8n
k8wlfu
1cfm0be
hydv90
ies8qv
dvq5bh
xojtdb
oquug2
1kl65gt
1gq7o1e
1g9knrs
k0m2ds
ai8jk3
1hu3vl2
1i3k212
dvq54a
1o634fd
cvlkgj
1n9nax7
1iaycc8
1e6cshm
ies0wu
1iyeio0
1hreosp
kmiu6k
i877je
1hfn4qu
yiu4kd
bm263k
k0fw8a
1fc17mm
1hdls3i
q8jx4d
kln0gz
dwbpjm
1ljj9kv
jgp4wh
sl7b22
u62o18
q3urwj
ug0lto
1kelnki
1n11vua
1hckxb0
1dmfwpm
1f8aa5g
3d943v
1m0qpz4
pgzbw4
1mj38go
1hvlgzk
1ib8i6j
rbycq6
1i95wvh
ui3jv8
k0mdfp
1hcc9qp
dvq29i
k89v66
h9kz3t
dvpp3l
1j7i802
phse8k
1mysxqu
1c7zm26
dvq40z
1fclciu
1heykk9
aayl0p
helug5
1mkgd8r
iu4hhx
dz90xq
manb40
1jwxxx
bm252y
1m8h1ao
1cff42p
ai2hur
pgrxhe
1fdvnfo
irgfob
dvpxtu
1cflo7c
bm25f5
1lt4u8q
pherpg
hsqf1z
1k39n3s
dz90gj
1idn8yy
1df9ynv
1myxt89
19862op
1q2hn4v
sumk9p
qequtn
1kmupjw
l60d25
1ji3uxp
1n54d8u
hrp00b
q7toh0
l60d5e
1horpi9
k89xcq
kmk0q5
hdlu93
qc15u2
csbcvj
1f62ep8
1i81lad
anykyv
phpivu
hlgzon
iu52wp
qahksa
dz8noa
dwj6zq
1hjuzct
l60d93
1kevkz6
1fdrek0
1lct63b
i3o88z
slii48
1bzhoqu
l5zwdc
1hy2hlr
1i6wkyd
7m85tp
1n9s1ut
dviker
hb2b7w
1iymqz4
ha47dt
ies9l7
cxufcl
1i2div6
1etlgd
an07qw
hu78hq
1mj393h
pcyuq5
1lsp7ok
k0mh90
1i6grw6
bgmbkt
1k1ywmy
1df9moo
1fddev9
1i6o7nt
1c00ydg
ifnxz6
it9cig
k0mf3c
abwban
j6cht0
n6kmmf
1g8q18x
ug21bc
bm27o9
iu6er9
oic2a3
heiyba
1m1dlrm
abw7fm
jgpdef
abux0a
qjmrml
1khna2o
1fc8t2s
lhf1vk
k88qxe
1hee8m0
jgke56
1feaw07
u5ko3m
dvpyge
1kuwfr0
1cfm7uk
mhz7bi
1l4ulz2
mdpx1t
1hvl34x
1mbyyo4
wa9fnd
1gccb8b
a9yqp8
dz99sv
1cfl30y
1i8tkf5
1mkh0f6
surmo9
phvew9
1n2pisj
1hbzuxl
1izvyim
1cflq2z
16t4zgw
1hd4hkw
1i4735u
1kbpb25
1m4g69x
1kicv0b
dwbn6o
1mj2sck
1i6gmxz
lmrq2f
1kgf61v
ph55a0
klmv3r
k88v0t
uhz27r
k89nd5
1mjlktz
3jtr1r
abeh4m
bm25z6
1heyjz1
anlney
k0mdz3
1c93rh6
1mj2r1e
1fdknic
1lh226a
1ic5206
6ehpvu
1n7kes4
w0079q
pi7f9o
irg7z1
csbriv
ph4h2s
antsk9
uboyv7
bl11aq
1cy5l2a
8u3si7
1ll6jum
1l8k580
1hq3m5q
kmj8xn
cwt75h
1hld1i5
qaq2vy
pha0cx
jgp8fa
oib4my
1mkfx4m
1i6gg4j
1e1dwg4
1fcdfwb
1khyfdy
dvpqnt
1i5tsdw
1df8u4m
1kggb6j
pp7j81
1i6gi45
uhvoq9
1nbulq1
1hl925w
1i7jkc5
1a16o42
1mkg3co
mw4nas
1hqxy4n
1icyac4
nxgc42
1jk17td
strrou
1n1fgpe
1i6gngb
1klmd57
hrxky6
jgozv9
1cflndh
pi86fb
1mkftvg
1k39w8p
1okvl58
ies4o9
1kez4s4
1fd17x4
1oqn0ay
bjkzn8
1mkikc2
1lsu8kf
iu6cs2
subecl
15m9w39
1hd3j3d
1fcj3h1
n6qblc
11gh2bg
hdse2h
1m3ai9c
1ny6l1f
qftkxr
smemy0
slqelk
csn1vu
1fdm1vh
jc1zuk
ies4q5
1hfp19l
phkgg1
dwalrs
1cfl6vf
hcju4c
l60bzu
opv13p
185dl6z
1jmlnwf
abwsm1
1kb773c
gvnvc9
1m4h3dh
d0rar8
phuwod
lsi92i
1kelz5k
1nbqv6k
i2t69u
bm251e
1icq8jn
1hngmua
1kellr6
8sadph
k0mdbv
me4d84
l60dfk
1f62842
1oc8fen
nr46yz
1hu5w1w
dwanbp
angnpj
mw4nbb
1g836ez
k89x5a
1ib95wf
1k4bngd
ai99lh
1n57lsb
1cfl7w5
1nctdf6
1evdbd
lmrrit
1m7jakz
iiyvh4
umcqj2
1od13ah
1kot626
k0m8mv
k0m5jm
1k6t832
k0m1m8
q3uq3d
1morzq
angnf4
ub4zzz
1hkwo13
k0mnot
1ht625g
3d93s0
1i1hko0
nud67m
htpu13
1htzfq4
knwyyn
1hudhlc
1i0e3v2
1i6gd9z
abutdt
1mmk8sf
c789dp
1hs0ogb
1oa3drp
1mkh1z9
1kxp47
1o2ozyu
irgb9s
1mwhile
1k2sind
d0enci
l6086a
1ic3lg0
6ei2qw
mgo2mr
hu9993
8uccxd
1mbyj5d
bm5ufs
1n54d7w
1cfla6j
anvg5d
hei7ij
jgkh5m
sl3lq0
1hwlju8
1074xn3
1gcbwn9
pi5rms
1huyle0
1m7qanl
1mjgtf4
1icpihz
i218lg
j6z1k6
1e75ppu
1dnoymp
jgp46e
1nvblv
m2dcth
aikuu8
1hf6tli
1ibhmpt
cvm4kd
pidepr
1fcch8v
1f88vfw
1m9o13r
6ei1f1
abx2ry
piatoo
1kh7u5v
1ht3yws
1hkigwc
n9zyuz
1dgvj9p
1i8wloc
1c9hh3j
k90hmy
1ljhb1j
klmwft
1gcbu81
mw58y1
j8qkhj
1hlo7c4
l61thp
cvm76c
1fd42m1
1cfl1jr
mzgi8r
1fdaf8o
1l95el6
l600ex
1cw9zd7
k0morv
1hyr2zc
dz8b8y
dwbn04
1hhxsf4
ky3rlw
1m8bgzf
1dfb8cz
1cflr97
jgpd3u
jgpmf0
1mki3y7
1mmgrht
1kno5hm
phw1qc
cvhyzt
oxmivl
cwt6jf
jgp7w2
1cv8lbz
k88w12
pimdbk
mc11m4
1iayrmo
175ogmf
1im8skt
1hkikp8
1pwepx3
1g8g2st
cwsghl
1o19874
18a09py
1fe8xi1
1knodyh
6hwt31
x6g5en
jgp2hx
1mkgel7
ky2n1k
hcyut5
oiau2s
1muit5g
aaqsj1
1cflnr9
pi9cu4
ii7oeu
1ndhec1
1hvlevw
1mk9gmf
1hux41n
vf4dus
1oe4r8d
1fcvesd
cvlkyf
1ib9zif
1gf9gnd
1cqx8k6
16610in
6njtix
1mkgxgy
stwf1j
dwbjci
1k7m5zq
1k8eoe8
dvqtp1
cvm6iw
1o19bks
1cflejv
csb8me
phxd6n
1hkini0
mqrmrw
1i24ko8
1fchfsi
1hn4zpa
1cv8844
1cflsp7
1fdyxh2
dwdd2e
1mwx6a6
1i1e1iu
l5zswh
1i6wesp
1hdtlka
1hq8iv8
hba9vl
m9zu5i
pd7jhq
1l4s54j
abwwyg
k88qxb
1f62ah6
dwce3l
ielkrq
hh8hwv
1mkh2k5
1mkff4j
suhav1
1ghilg9
rbxy79
irg8ze
na03j1
jgp2ut
1i1hjzv
17u0csq
abuyjn
npjcaw
phgs3w
1hf8hnb
t1bl46
1lis2xz
1k8deum
lgvg8f
muxpwb
1hkp035
1g7mkp7
slapkw
1f62izr
1o4vi62
1hqg4db
1kgen9a
l5zp5v
8u0s5u
j67me8
nclqik
1cfl4jl
1hg2siq
krcoig
1hnxq19
jgp1gw
aocb3y
1iccu3h
1fcoy8e
wz1pz4
jgqut6
irg75k
pgxyy9
pgqfrx
h9c4jq
1cw7i8f
1icclc4
1fdhhie
makr13
1m333yp
11y51w7
phcve7
1i7jj7k
1hpbywn
1m7qekv
bgdnun
1hiky5w
dxmdfa
1mkfzet
airfne
mgrbqm
17o5hl7
1fdzmk7
k88u2g
mvgkam
bm26cu
1ndai59
k0gwru
1m0c0xa
1f64gbs
jgknwl
stmiil
1hab9vm
ukppxr
1hgmua8
1mki5og
1myuq21
dwch10
cvln2u
1i6ymnb
abwncj
dwbd1z
1f62csp
1kaydac
jgpfqh
1jluwb3
1df8p3z
phkn4n
lmj7on
1n54c3n
1cfkv4i
csc4rv
1i2db8m
10gfam7
pi3eil
1ic4vhj
k89u4z
1djazpx
1787688
ubnl0l
1mjzis9
q3uqxx
6mztvg
hrunhf
1k2oclb
1hny4gx
1hvkm6z
1kg2qkq
sut7up
1hni4oy
dvqx2l
pdq8y4
bgdo8d
1fd4fev
1hros20
dz8obh
1m21jz3
1hkzgug
1i3xrxc
mi7cj5
1mfb1os
1hcg6bi
1hvkpbq
1cfls0g
186yj4l
1f8mhdk
181hyhv
h96t9h
aiben7
1n71w0p
slm45a
10a2er7
n90q33
1mkf1fl
1httydp
mnrrho
1hfojrk
1j7oga
1mjzdku
1keevj3
mg4yfz
1k9zmjn
1i87478
1fcx0b0
1k3z0y1
139t2re
1iatq3g
1mc6mcs
1fefj7w
jgp19k
1oddcne
ky3vjq
l5zvsg
3hyp0m
1cwl2bl
kln5a6
isqq9s
pi0o2x
mwgyvm
k194lu
jgp763
l60424
php3le
it97nh
hu92n8
1j7xhi
oqn7q9
pgnaw2
1hnyine
hnt303
m2mx7k
1lsvz7r
1dpyzah
k88xo4
1n2a74a
c7gvor
iu5a7v
1i3oub5
1k39j4g
1n74qvx
phrjru
1j8itit
18fvvj0
1hy4ygq
wezh4e
1hc0kmo
hej5n7
1hcovmw
n8zxoe
o8wpd8
1jfng0b
1fgww0
k0mahb
1df8pu7
sun08a
1mkhrvz
irg61o
k0g94h
hvyt7p
pyxsf5
1nbezhp
a9xzl7
dwam1f
slce0b
6nij3o
106g2li
1kuhuly
1d38wbn
1kj4sso
aiaixo
1m21kw2
1ljhhz5
stm6d2
1km6ftv
1ie950q
1ic4ls5
1hwh88f
1gcbvjz
vxxzka
sllxkp
pz3sog
1kayaj4
1mkenna
1kaztzq
dvqom4
1feaxgn
nz6o89
iesatk
l6046u
1mv8aob
1i6gyti
jbdmwb
1a6gb25
1i678il
m1fiur
cymsep
1hvls9r
l60895
ihfflf
1jesc4u
1o1b2nc
1dkc6sp
1oa771j
1df919n
mwmmpc
1n9cpr4
hu957y
slxn6u
xahwsy
1k39ifk
1mrdlv
jc2guw
1hcd2em
cvlon0
1itpo8v
1mmgfhr
1izfu54
1jwvun
oq69rb
1401aog
dvql1z
pcypjs
1hy4y4g
1bgrx7v
1ljj1ql
1cflfz8
kmjnlo
1iayz1u
1cflpk2
1kenvw3
k0m4a7
6gzmc3
1jm9ark
gxvnws
cvm4ys
1hac3ja
iu588o
6hb1rv
1n0h9kv
1c9xt6t
rbxyv8
1hni4x3
jgpeij
uiek4r
anln56
ha9kta
slbhld
it977f
6hyhdg
1j4do9n
1fck3o7
1mkhrox
klmu0z
1ibm6iv
1df8t6y
slxbbt
k0m3cm
dvqq0q
1mmfoms
1j4feg
k89wks
103na5r
mvgln5
1mw3f0v
h9kym7
irg87j
qckypl
aoeyrk
1e6cs0j
d0b6ac
1mkfw5r
1hy8rlx
smaqa0
1f64rg5
1hw6sf9
1m3avw7
id4qfj
hrochc
1f64e5r
1cfkul9
k90gem
aabtwv
m9m1i9
i3lzqi
lsiave
1hcoolx
s0v8qn
bm28es
abx0ex
1ld4qt0
irg61t
197ur9d
1hkvteo
nbscxm
1hd4nv0
ma4gi9
1cfms57
1mmkpy3
cvllli
1m21q58
1hcuthx
pgyqfq
abwmsd
jgp5js
124ekqs
hvyt74
1hn3mot
i3lw3z
1cflk7s
1c9l6aa
18o7695
1ie9dk2
jgp7dn
klmumy
1kefdzp
knolog
3vvvf9
1o0q33t
cswz09
kmjf8x
oidg8q
abwyhk
1mg4ndg
mwmu61
1km6n4q
jcwtjy
q8inqt
dvqp01
pic243
yuvcxh
itw2j8
nxg70l
3d93rp
irgfas
m1yfsj
1mw21jm
kln15q
8rgjbg
iu61bq
161b3g4
u61lpn
1mj3pca
kjb8ab
6h0d1t
dvq3uf
jbrg4c
1hhrqiu
ite437
kr6f5l
kmizm3
i8em8k
itpf8h
1k6se13
1o2owu1
ies8op
jgqx9x
dwcfrh
1gq0sof
1fm2e4z
he0z9h
1hd3wg8
w3oqlc
1hvs6rk
1jfq5wo
pgqgwg
1mkg3rc
1fc8o9f
1j1jmxr
aioy3m
huncwj
1cflr3k
y4be52
1jlwg9z
1hvkref
nubi01
mz4zcc
1ixr76o
l5zwvs
1cfl1ya
dwbwsl
1mpta7
anjuih
lgkgtp
1jx3sk
1fes0oa
1i8719m
1icdihj
1hfysvi
hbaa7y
mhw0i4
n6wmfz
1kosr0p
1i4tdny
dwd0ov
1kaey9r
1o2ox4t
1ienmla
1cfm34p
16t0yh8
jgljcy
1i6rdw5
m2db1b
1dk7ssv
1hfk15i
1cfl685
1hpciel
mxjhvr
dway5d
k1cx5j
1fekq8h
1ie8db1
oes0v4
14icjst
1fdfgin
pgnzf7
13nk80h
1i7i7bt
id4whd
1o18ppa
k91bho
1idig8a
1ndktu5
dwbsuh
1mmfoe9
nkzh9p
sun6ja
hcktk8
1ge86d2
19fkifb
1i4utvp
hqv32k
1mwrjfg
11h91k1
dvpnt9
11a1cl2
dwaw81
piqixf
nbw7o7
1i6e5ba
k88svt
1j8zv8
1ic3g7y
6eimhl
cxzfzg
jc205u
1cfm7wx
1fd1m1w
1cflk8q
q3v43q
1hx8x0k
l60amy
1jm9cb4
1feh0mh
8r6nd7
1nxsus2
1i66xtf
ma19tx
c7fuj0
1j7ncu
1obx6f6
j8rhjr
mwmjgy
1he57wu
mejiuu
19q5d33
csvki2
1k2kc1g
1hdabkc
mwmt3a
1a16kzc
aocbqx
jzyxbj
1mvx691
lfzqhv
k90oih
1i6yvka
1l1k4nv
1kr68ga
1ic4dky
aaugtu
1hg67fq
1i1hliz
q5d6id
1mfuhlw
1n57a8u
1g8q0y1
1hyidga
lo21jq
muxucu
1hd9x7e
aiaas3
pzlgc1
1o7untw
lrf4ga
mdpcyp
xfydyh
it9clf
l61v5c
suhe3m
1ho3dj0
1mc6p15
1ltcjq5
1o198vi
1hdm9vg
1da0jpd
1ndhhyo
1dfb8hs
dvqkls
1mkiamf
1j7xif
ph3ty9
1kno0lp
1myfxis
d12joy
6hxe2u
1mfq2dk
rbym1l
opq6i9
13qye7p
1oe8q31
sy2cip
dvpzk5
1hwjacx
1i4oxdb
1o18f6e
mw4nes
1lrckgx
aojdyl
1bcp8uf
1kpax7g
uhvccc
8m3ale
1httb4e
jgpio1
1mj38rj
13z615l
1hkvxbg
ha4mf4
1dfaupy
mi8y5n
l600gy
dvqb4d
1hz6ez4
1hnx88n
1i46x47
1m3au2b
1mkgvtc
roeh16
1cflbk5
mad93c
1kugtu4
bm29mx
1o1ayy6
1mhtr7j
1mmfu6p
1fcel9q
phgz5r
mnrnw7
1iay9ct
igz3ew
i3lzz3
ies6i7
1fdbdrb
dz8y1c
1i1j2lo
1j816z
nbx1ja
1i5abp1
1mmfqf3
1lbwcsp
1b72mc4
6nium9
kr5y4z
sl3dec
1mg5hvh
1kif3wl
nk68q4
c79rj9
hk920p
1o7xo80
iu6frp
1n1bywm
1msctu
hcb5r9
1c93nww
1fcijto
1f627gx
i3qm24
ox2f5t
1cybmjo
l605g3
pidhgf
1hpc2ix
pgts78
1fcuf2q
1m3ale2
10jpyaa
1ojcxe5
1f63vkm
cvllt2
1kurz24
1k2701g
csmmt5
jzz55z
phdhml
1ncb0nk
3iowd2
18s9fro
15rdo82
ph4zl1
6hveay
ph5hti
1htu54e
oth7p5
lop30f
1df9m45
10lrvpm
1cflny8
na00h3
1hpcza4
1o5bmy6
k88w4l
1cfkwot
1hch2qd
1j4jce8
10tr0t2
1cfkv3p
1oytdzj
uhv06i
1kc60mn
ies0mp
1fh2yf
k0maoa
pi5wk7
dwcozx
nbmc53
1hfpwkm
1fdeq1d
1mj5c8j
nkw5fi
1fdiwgs
1cxvzgx
mkqtsx
iesaun
1mpor27
kmiueb
1hfsesb
1fpnf1i
1cfm3m5
1dfaus1
hejyek
ies9vg
1fdrg8m
ufdb4c
hvyven
1mbv8wp
1m324yh
1ncn1yl
1hh86cd
lml0ax
c700cq
1mkietg
6njij9
hvyzx6
1hfsti7
1mzzq51
1lnunqn
k89t6k
pwm4a7
1i9dptn
m102r1
1fdyo8y
1n1bzxq
1kelxzs
6noxjb
bm25ed
1jtm5mw
rbxovy
mbmzk1
kln0pu
160eesz
1lhyaif
pi7hq1
dz8vor
1kd0sat
1kv7ymz
1hcoknr
1o5bhgo
kx0168
1l5dwxm
1lqgka
1cfkwcn
l6068h
pzr72g
163dcs8
l64upl
vuhmdz
1nbqv51
1mmgi76
1gq4f1r
urtucb
1im93ce
phpjb7
1lmqvrd
l621j6
gvnvdv
1ibhqrc
1kuryzn
1mmk55e
1cfliqd
pha301
phf8bu
j83u1f
1i9kcki
8t5poa
1hfsf5u
1milmmj
dz90wh
lsi6c1
1fhal1
1i2lek2
1df8qy5
1i79fh7
1hey89n
6njtgb
iu6fmv
1l7o6nd
q9ud5p
1itzd8b
6mzt3a
1cfl70d
qerb08
qaohv0
1oe6nrw
afdpzs
agy0zi
dz94ac
1n5nk5e
o9026x
x28glr
1hpclbe
mbvues
ky2dsj
16t49wb
aib30k
1lhd1wz
npj7p5
1cytmga
1m0c11r
17xq3ml
i3lygs
k0mjbm
1mkijk1
1muiaei
o9mtlj
1mc63c9
tw9i9y
l60754
1kefeci
ph9tpk
1iccwk1
11h7wij
hvu0vr
loq8mx
kmjpri
1ic40w8
1f64axc
1hdrxr6
k0mhtj
6ei041
k0m3wq
1i6riuk
1mw3ez4
1fst6xi
i2t4zc
h8wtdk
uxe0hw
1cflh23
sujvg4
ublm0e
l606lg
1gcbt43
1o18sz3
1m1yj19
1mj39ff
mkftjw
pgq26g
kmj486
1bzhf6u
1gulo9r
hf3t4u
1mkfacp
1mkejpl
1jwyfz
1fde9sh
it5rvb
1fd1cl5
1fmncxs
q3tqo1
19zp9sq
1mkfvwf
166588x
irg63j
1knny7q
1ljvk1n
1cxy9xd
oe9bhx
1jisewy
dvq7nb
phymlh
1mkeynm
1j3sxl2
1n29ti5
1k8ivro
1hpbs8t
p0nxnz
1cflc11
1gr27s1
15h8mpq
kr675v
1o1fwkl
phcz4x
1fogdoh
14i7nbn
q45f06
qbv80d
1df920o
dvqtld
mhuoy5
nt14e0
skxg39
bgdm50
1fczhny
k88zc4
1keltng
1ic4bxo
ph4n48
pwjlgf
1li2vz8
u62e9f
1l3x6m4
8ndypv
l5zwgo
1gyb75g
1htn08q
slbbfk
pgrotx
1hzhouk
dwndov
1ece1n
dvqmus
isqibd
acj5nu
1hb6s4q
1i6vxbu
1mjgthy
1hcsfy6
ot6seq
1hpd2d3
1fcnjtx
bgdotx
13a43k6
1fcxemq
1iddnxc
bm24md
q3us0t
1hpc3zu
1jfbsig
1nd86i2
j8qtcy
vuh91i
1nc5dn3
1kr6c3n
iu5yxw
1mkgcvc
k88qzn
3ctlen
p0olov
1gcbtb7
1kemzuo
k88zcl
aa9tzh
1ji8pc9
jcxhf4
suenem
1mkh6cn
1mkeyeu
k89ne4
q0b21n
bm25bj
lhebm9
l60cks
1izfp9q
1n6ym6q
slyg29
1hpbyno
1htan0a
hfmswh
1i2cx3f
1c83g87
1kcr45e
1ic2k98
1k96lvm
1l53cr4
1hta9ac
1ji5woa
7m2si6
dvqa1n
dvpo2x
dvq8jw
1hd9rsf
1mkh51z
1mkilbg
ielbda
k1cyia
1hrojny
phfcfr
1hrdo54
1keol2n
1m0qn6b
1k41e4t
1cfm1lc
1lcsaox
18xti9g
1hf95dj
6nfzgx
1f64ajw
ph3zxo
6qhm2i
aok0ph
1mim7ki
1hl69zr
188povu
1fedihz
pgua9b
phllze
1cfm37j
hetujx
1ji5wzg
1i3y4c9
6i1hbd
1hc0his
1k7i217
lshtaz
1m66hym
7mlc8n
sup4z4
hptvet
su80w4
1j7uah
1iwwpak
1fchntc
1i5nwdf
sttfes
15uqw5f
1k5exce
lsi6eq
1m9xfra
1n1fzt0
slmkw5
1cfkvdb
1hbpgbu
1mg8dp8
oedl21
1fe26q9
1hu7gm8
1fm70v
1hqsv0o
lo2ea3
1kaa60i
1mkgt6h
dvqnqq
1i7g8v5
jglxdp
1k0e5bx
1jj0ouh
owat5i
1n6zh4d
1gucnzu
1j9gp07
kmjv68
hsncp8
dwc2qy
iu5371
mgmrl4
1i6ww42
jc1vev
1asehp3
1kelvpi
bgk4jn
gxmo9h
dvqc72
slsfqj
1iz6cjn
l5zzj8
jbrjc8
phlul6
1j8a91
dwcav7
dvpwpx
1hkl9ia
1cfl5k3
1i78jx6
k88v6l
jgpk0o
dwbar4
dvqmn5
1htthk7
10558uh
1n3t9h3
1ic4sa2
1cfl8o7
klmtb6
mvf1gc
1i30gld
1o6q3wv
k1cstx
1hk5a9u
1fej6hb
it98b5
k0mjat
pi635d
dvq3pv
bm26bu
mgxtja
1hf4sni
6mnhet
hel38c
h9lop1
qbyddv
1od94og
1iaohzo
8ttowd
iu52au
1o802iz
1k3hwdy
1mc63am
vzwenw
11w5kco
dvpo6f
abwq8o
k0mjgm
1cfl7oy
6ehm00
6mwbae
yosyoe
l5zxxq
1hn8jqb
1i6w3wl
1hd5eo6
1fgwcy
1fcesqn
1n1fd8r
1d9yqoa
1id9e9f
1fc2bvm
ls6tk2
oqhf88
1gq0mp8
ha4yz1
kln0hc
phl68s
dwjbp7
isrgip
1cfl3kd
1ev677s
it940h
pgxo4m
pgpr7w
6gzdff
xms9rb
k0m1iy
1kuprme
1i0fvzl
6mzycv
1i6zh7w
1fe5e19
isrf0q
na0n3z
gc6hq0
1d66fb1
1i9jepl
jgozwq
1gtjf2l
ibpcgy
10cj8g2
1hcjgyk
1dhjd9x
dvqw57
1i8uc7i
ield2u
iu1m3k
vehtmf
1hvl2v9
hr2clx
1hvl29z
dvqa2i
1m661i7
1hpcz5r
1kf2mco
1f63vhe
1nzniky
mnykgn
it98i9
pki2od
8phv5t
1hn4zh3
1cfeuz9
1muk6g6
ctel34
1kht82i
1fek7d3
ies3o1
1f64bix
1jx49y
1cfn4wz
1m21l01
nliebt
1l9af0z
1m3b0lt
6hu2de
1pb6bse
1id9qts
1hcef8u
1o2orva
dvpoed
ph9z84
1hwj568
1ji6eos
dvpvr8
1fc0n91
1fcm4n7
k0m2ow
1k6l82b
na03cy
1ken5zn
i3m0jj
1ja2idk
1minydp
nko9m1
nm61po
muv2tm
1fe67ym
1m7qal9
1l8k8wm
1fcdplx
sut9rk
1mkijlc
1lowqot
1l9abgc
7nf5c4
1k3drzr
smfidw
1kot8ek
1k4h2ce
1n58i19
1o8fcj4
t3cf09
1jco90m
1feu0sw
loom5w
iu8av0
1jknydc
j608fr
1fdssju
1lcj4ot
1hd6vcl
1fcso1n
1mkg3pl
k0m6h4
1cfm5w8
1i6p40p
1hwmker
1hreb75
1o7xexr
1m21jct
it9b11
gvow84
myy0g8
php2mq
kr6j1x
1m0rurn
it3bpd
1lcxrps
qlbrjz
iu57qi
1m6kliw
nm2060
1majm9h
owuxcr
jgpfq9
1n4u9g0
14ztf16
dwap6m
1hv09y6
1m1wvi0
abwm4s
1hksfs8
ai2jys
dz8s30
1cfkyfb
j8retw
angjeq
1oadi36
mz4zee
phzwmc
1846bmn
k89rg0
8lw2gx
1mmknyh
lgvfuh
1hznv47
1cflnvh
dvqqxr
aia5oj
1i40su9
1hf46mp
1ma9znw
1hf498d
102jd4k
kln1ei
1fqt5oj
1l7lymg
dwjbkp
1i83ish
1m39vbk
1mtmfdm
sutqyd
1my6q1d
k1cuqd
1jfc6di
1i6grv3
cswy6m
1krnx9f
1bbdphm
ii7q8t
oi8idc
k89bpv
1mmfs3w
1df9l7v
1fcpoee
m2l29u
pwlcn8
phv5vc
dz8tqx
slrp00
1f2zyzp
8nectc
1i5iisn
oqdglf
6lh0uq
1lmkiyv
hu9m8h
1hewncn
1ic4c11
pdqbxp
bgdpns
1keljhd
1jwxls
dvqqb6
phawkq
maou0o
ij1qqi
1mjeme7
1izpy2u
ph12ja
k1d1ei
abutkc
rbxjlp
pdqa54
kmj8hw
slvxrh
dvq068
nbfjax
n3r0xb
6ndclv
1hk7nq6
1ljh9ta
wunfmk
1ny6ex3
1ha1upb
l5zvql
1i9jzrg
1mbybtq
kln34s
ii4bqf
1m7qbvb
1hduta4
ansnnu
1fehmww
pgzvm0
smgfan
1mc6ffv
1lct3wx
pejmpj
l60dc7
1mj2ivt
l606wy
1hvchcf
1klp08g
1jjd06y
1hqsipf
iu5iot
1hf11ek
lfr6w3
1kj2uyl
x2yz7p
1i6zoph
q890uq
v83uqa
ii7c8n
1ibuvkh
1mtrfhi
i9nzv8
1fc3nvw
stnrvw
1hbzxzf
1k53egi
k0mi5y
phklsm
19cv8wl
l6043g
rbynd5
lgvg4e
pwn0xl
1hu3zi5
1hnw72b
1d2wfp4
ies6kp
1lso0bj
k0m1sv
1mmkd20
1hfol0s
1kotcsh
1hhs127
1lmk1rt
npmd50
ybhrzk
ycgq5f
15rchpu
ublav7
owwm1h
ies5t4
1ljhcrf
abut76
1ifdeqh
1mi5ibu
iu5xvs
8udenw
1hf2aur
1m0bs43
1f63qp3
qh673g
149sju2
1dk89ux
1hp7vyx
npfgpy
klmujs
hffkvu
l606rz
1cwk89y
1o8ldw4
1hm3coo
afo3us
1f64gdw
1fc5578
1dqczl1
cvm3p2
1fcov9s
1jj3ga9
1cfkvxc
mp9joo
1cyjlk9
dvqt88
1mm3ye5
pdqaco
kmjw6x
1mvz7wh
k88zop
1jidrma
1ilnj1h
1dm9zmz
1mhtxbz
lo35v9
8mifni
qi27x4
1cfkugn
1cwxltd
ii7do5
1hjnokz
ahlm7v
qrtx9m
1li2usk
1mkfxmz
15hm8vj
k1cwzj
1fdsj68
1k1uy31
1hb7sew
1cflr0i
1i89369
1n04kye
8s970f
k89toe
1hdaazq
l60ari
1i6vvlk
19a9mrx
1kr68x8
1jfbjwk
jgp7vj
6nirz7
mejds5
1ka72ao
dvpw0u
it96cm
1kaxheu
1kbbder
1mmfwbc
1d2wlqs
1ixrccy
1i1heud
ies3fa
1o774mv
1i6rb9n
m9zca3
1lowqkn
1cfl7c5
dwbky6
t10xu7
ifvulw
1mzxsaq
1dny1fa
pzs11x
1kaimvr
15qiol9
1hbhkxf
owwasi
dvqtfy
1n57fse
6nizj7
pzrrdz
hua8oe
ies89o
mdpvyo
1hvpk2z
1mj3ar8
1macxvi
1mbyf2f
6mvz8v
1mmk287
1hfop53
skvmdx
u61gzb
jcq2bd
1hfkgb1
15cm694
klmxic
1mkf3v0
owgctu
oqjhuy
hqsqi7
1mj0ewj
dway81
8xzb5g
1hcd0pj
j7lti9
1dfb9uj
1fhcmk
pzmyqa
gxrlr9
d0o9kc
sl2pbu
slz8uy
1i3wygf
1jhr66s
na04yr
md83jx
1fc8opm
1491lwx
1mddl8c
irgczv
1makaz0
p433uf
1ece4a
1iyn2ae
1n3twih
1hrpln0
1i1vvxg
13b2n61
1fdlhap
1fpndyl
6mysgi
1mmfgno
cvm5xu
cvm76l
1mkgu3w
1l5e3ef
1mzzty5
1hdab60
rbycgd
1hbi5ut
1dfb9tw
1hnw9t6
1f64bvw
14yw8x2
kr60ex
l60bxx
1kellqn
1fdnczj
1lmqulv
1hliru4
lmjp9e
1hvl76e
1i0da0g
lo35oj
1i6754c
1i1j4kk
hro75e
1mkfdcn
jgpas9
iftwzc
dvqhxy
1eoplzx
1dev40r
1kc2r67
1k3e4iw
1n60zbd
pibe3m
1i4u24c
1mmkkea
1hu2thi
1c7tytt
1k7g9sw
1cwgken
8scopi
lrdhgz
jc1wt2
dvqcjl
irg5fv
1n1f59n
1i4raep
1hvltwn
k8a34c
heiti4
1hu3mcc
jzn3bo
1m0dy7q
1hl969p
q4k7qy
1mmk8uz
1hcc9d5
1iawjt0
1jx45v
ii7d9d
dvppc4
1ncazbf
1cflm4z
it94sc
152b6dh
pi6jjj
1c9gj9i
1fc4qum
dvqmv9
stt9bi
bgy387
1hs0up9
1hxob5m
phdyu9
k1d0ln
amjeop
1nfirc3
1izp7ld
1grwk9n
on50wo
1lhyae7
gvnvp6
irgfb6
1mkh4xr
6fuw77
k0m1dx
heish2
pi3ky8
1ki0quh
abx8ua
xbt2j2
1c93wgc
1f64r5y
1lmkb85
k189b9
k90e99
1hcc4hl
1i4d17e
hvfndt
1cy7til
acf1b6
1i4lnok
1k21968
ph5w6p
sm1djh
1fwit34
1fenn4y
1fei3dk
oeat7y
1ho4mjw
1mbyh82
su14ax
iu5yym
cwt1qv
1mkfvnk
dxnvut
1mj36ig
1hf43w4
wehgcb
pdq8h7
pi3spr
sm1ykj
hydxuq
6duvi8
6mk9vl
1mkfcpw
1c9xs3r
dvqa0s
1ljhl21
sunrxz
bm25fa
dvpzuj
cvlq2p
lgvg78
1hboy7o
6ds9lw
1cfkwx2
cvm4kq
1j8oow
1n2o0cg
1hy6kxq
1i6wkw9
1hu3a09
q5bqxt
1cfkya4
sl08tl
k0aptr
1a15u1c
1m1hvni
slkz2s
1fe2gtn
1o84ohc
lo35ie
175jatb
iesaa2
1hcsuer
1kno47o
1cw7868
hh8i2c
klmx3g
it9f3l
1df8u2s
1kcncv2
1l68d2n
1cfl1iq
1m7qcnk
hczzzo
ph04nh
bgkk4k
1ic4r12
j7lrsr
lo37kt
1ejuwm5
klmtol
1kf7exs
k0mhis
1hhvlks
kmites
14wmmv3
htzddy
1hckamn
1gfa2mg
1fcjs4b
1fcbov9
lgq0ok
1j8zkp
1lpppeh
1k6knb3
mdppz0
u15b1e
1kco9eg
1mmgan1
rbxy0z
hsqnev
dwavbx
1gq0oat
d0snbv
1ka6k0v
1lcsuyf
1cff687
ith0j9
1m36fi2
y4gkjm
1hkigqt
1i9jr2n
1hv4m9v
1fdoabu
dvpn3j
1idairi
jgplwl
1ib7k03
1mj3rye
1kgolni
nxgboh
opzsb9
1l32z5a
1mki64r
1n9bit7
1fbzr3x
1cflb89
q6wr7n
n6iyyv
1fep5ob
1iw5a2k
1mqt4y5
slqoa5
1jkx7y0
15cue13
1i67kfv
1movdq
jgpih9
1mkesv1
1lk2zqd
6mw3f9
139pslh
pkhozp
hsmh9t
rby3pi
cwtjp5
1l1kgi2
ai9qiz
dwcxiy
1gq0iro
h9lnor
1hwm31a
1kef7o7
1hkgx6f
anloyw
nm927h
1hvkjnf
1ktzmyp
6mzp7s
mnf2ps
k89t1s
1mx0j9v
dvpxio
mdpk18
187vy6u
abwgur
helvrp
l60doh
dwaln2
1n60rfi
mv1qrk
k89civ
yxb2l5
dvpxid
1mkic3o
dwd985
knpx46
l6069w
1hxxj5m
1i0fo59
1ic452q
1mc63k7
1lux9m5
1jbpdst
6mzoa9
bm2615
1nc7ydg
1hqsfzc
1i97tex
1n02gi1
1kf841b
1lqfvh
lsig1e
hekxx4
nm8vvr
1mj2jbc
k88xez
1he2gff
m9px4y
1ncvyti
1mmk2so
1icywss
141sr3y
1gupafe
jgpkzc
dvpm9l
pgpbm7
k0m6cb
1f64g71
1ho2jbe
cx9rpo
1hb2l5b
1df9zqi
1hf4rth
1dfauz2
1m66ppy
1k3kk4z
k88r35
irgfvg
1j8pxc
1i2cvk4
1fdsgtw
k0m87z
wa7fz0
jc1v7k
1ganlvf
1etokz
i55t5w
pgpik3
su68m2
1gbdkky
1eo8r46
dz942z
1dep12u
abt5c3
1cxzojr
1hye4de
bth5vn
slc05j
15rddev
6n0anh
1hf0xsw
oyt9dp
1km6cpa
1cv940h
1krq45t
ifro89
lgvg50
dvpze9
supmom
bm25ai
nk6h9f
hvyq36
q5y6cz
1hds03g
1mh3hvl
1fc3woo
1k33n8h
1jx6lb9
iellpa
kmj2ss
1huz3oi
l64yk5
sl62oz
1o03yxp
1l14hyx
1lc0m8f
1ndi033
mdq53w
lsiax6
1f64c12
pgoj57
owbqno
1hy4wrj
l61u45
1habtla
1l57ihh
c7hjr6
pgu6tf
k1curi
nivbqu
1i75jr2
1k8bhzm
pd10ef
jgqvdf
1m21k8z
k0gina
nsqtd2
1mkfd5h
1mtgado
rbxlub
1ibi5wk
1ho61mt
kln38r
j60bwn
1mmkcij
1o6ypzn
1ibn5pm
jgp23f
l6030p
1mivdpt
vnxxd6
1hbjq3d
1i9jpo8
d0khzo
1d3geys
1i2dda8
hekrlf
q3uruv
sloibh
1o2oo85
j5vj6s
kr60y1
1mfzxcv
1mmkx6d
1fd225w
pengkm
1fd1gs8
1cfkzf4
hehuj4
1o4fed5
1fhaqd
1dfa741
1hu8an0
1k2hzx6
ykssuu
1htn07z
1mki4pa
1keoa19
1mkhah7
1i4vp6a
iy0ddm
1hd7qq6
1i6rjov
1ja1m59
1kcl768
1kupogs
1cfkx27
110vu1q
1mkgshs
1ncbfsl
pgpyir
1cflqxg
1iebmy2
j5r2ek
1n6u5zx
1fczaoi
1jx35a
ky3v4y
1i6x1we
1hl4hv8
mww90k
1hkl9vb
dvqmze
1kellvg
1n8u2zn
1k4lqaj
1cflc80
lo35nd
1i6waiw
p0o68h
hdssam
1mwxqqn
n7u6ee
im2e85
1g65fjy
1gcbskg
1kcyzhr
hq7p6f
1kjtv8q
dvpufr
m3s0yp
sl586u
k0meu7
1f64cpr
pi0glt
1nd85kx
1j5u501
phuzrq
1df96r3
1hvig0c
1hb5s79
1aid9hg
1cfktw7
r19a79
1jbrdum
1hl71qd
hd0rpr
k89xo0
1n3suew
6mk8nb
jgp85m
1kj3ueh
1i7oe97
cvm236
qiihhh
i8dayb
m3xb3d
1lsbzjl
lsfjln
suerto
1cflk15
1kd1z28
cvlnlc
hu30y3
smchfy
1jmo1sl
1i6zmj4
abwnq9
oqg17i
1he6iog
l5zqbc
1kitk2u
1hr7wao
1oe6f4z
1df9kty
rbxsrr
l5zrfy
a9yiki
mvpvwh
1ji5yh8
1m31wqa
1hdl1ig
dvpron
d0b1ig
yx4kal
jgp47q
1i6bhje
irg634
dwbrzf
qccggi
1cnyajn
1itzicg
1i5cr4i
1f319el
1hlmljg
id4uex
kmixef
10sny6z
1kot8q2
pkn89v
1nbqy2q
1keo9ed
lgjaok
dz8vae
i2t76b
1mkg73y
1i6v8mw
mzb6wk
1mkgcjh
klmt7m
l5zu0h
1f64jzr
1o5bppz
1hfszq3
1i24lcz
hu91md
pi1tpo
1g7liqh
acf2fb
18a55z4
1i6wx1t
qrtytf
pibkqw
1j8p7y
jgqr1v
hun05q
1fdq2ch
jgqry3
1hlhtia
1hhh8b5
ihpeji
1ho4qfc
dvpnlj
yga9ho
ww2c9m
6mnjcd
1ev04ik
17kb7yq
bm26r9
j8qtay
1jx4gk
k0m1nu
bgkb3s
abwx0u
1k59a4g
1my0i5s
1ka9u4h
13yoctc
q3uqnm
ano55o
knliep
ucw6pn
1cfmp4f
nai0ah
1gqfrli
ui4mfx
1hce77n
mkrp87
kmjy0g
lhhw0q
sujo0u
k0fyh2
cvm2mc
1cflecd
16658v7
1hemogj
196d75w
1kge9do
1jwvkq3
jgpjo6
1cv9i6n
n90lyy
1kt5grn
pifxsc
mglswj
1eam841
1hnyi0r
1li22h0
1mmg8kb
1jmh9g
kmjz6c
1ji5wuy
dwcxtn
ij05ip
jzbqg7
1mj3ak1
1cq4qp5
1cvarpi
134r7iw
bm26d4
1nd5fqh
1ilgz6i
1keoa1v
hf3wdo
1i6rdhh
lgvg2a
irg70r
ubg5sa
c6wfr0
1hjqnes
1m9tib0
1hp82p0
hecanj
1cfl0mq
iu2yc1
12j6b0l
it9cf8
k88znq
1c8s1ya
n8zgwb
1oc6991
mwyxk1
ijpade
18iqrw9
h994qe
px7cbt
m3sjrs
1cflq8y
8sxb82
k1d2bh
lmm57p
suj075
1ib7f9e
1i9jo45
11xiony
j747xh
1h9vc2b
ai7hw3
1hzslrm
1j7lsg
1hr7nvs
1i3fvi6
pgrfmu
1fdam1a
1n9yzmu
h7m88d
l605qk
1knp9k5
ht7wvw
1hnwlwv
afiqnn
1km6usp
vnyd5t
1cbhaj5
1k39mf1
1cp6lir
ihiypo
1mj3cfb
bgdcgt
18ycshh
klmwg1
1hy4dfp
xmp0yz
1hkxagh
cvm58w
s56znm
k89p1g
ubkfof
oyqnl1
id4sk3
1kgfgb5
irgdo2
i82013
1bhdzkq
k0m2d5
1jixh7b
ui0kd0
1kh08l0
1hxx1wk
1fcjuux
ouuocn
1cfm3r5
1e5ci1b
cvlres
1hd22u3
1o85anv
c77521
cs7x07
phgy1a
1molze6
1mkexrl
n75d7r
qaqm3i
1hu4fs5
pdq9jx
ielgfe
2942o1
15qhg6i
iu52yk
1mkh6w2
1i66x7t
dvqdxf
1o384p6
1j8u66l
cu3cez
1ncxltn
1ielqzn
ixzwof
1cflkfw
oytnps
1fc5yb8
1lh0kuf
bm7o7g
1gukqmg
1mkihxn
1mhturj
7m16ew
d0iz8u
1i6x28k
1mj2lf7
1k26vxu
1o2op20
1htn5t0
1cflrea
slux2a
1hfvkaj
jgpcap
yoir7a
1izqo0n
1cfm3pi
dzxr4d
lfr6r3
stmfgs
1hrnv68
1evh1fx
c7ghbf
1hnwn33
dwb9m6
1fc58xz
1hzr0p2
k1cuik
1era97m
slj59h
cswzoc
pyyx3a
k90oi3
1havpv2
1hv3yv1
sufvem
helpz1
m2b35f
6mweas
abwl0z
dwb4pj
1izf9yj
1mkhhh4
1mkgvp8
1cytlsh
1mte5wn
pdqakj
k89rzp
htq0rl
1nza94y
k0mfco
1nxlxxs
ui03fr
10l5v4v
1o1axrm
1jhrwqc
kmiy1x
6mb6x8
1q0k361
11a0z9h
l603hh
15qi6z8
1f64dqv
1gvol63
klmz01
xwl24f
1hbgss6
105g9xy
1gulngr
hea9y0
1i1f4tj
1iaxxmk
ilz2ua
bkxrpn
ia00vk
6myqbo
1mysx8f
1fc4jfw
1f63nt1
1i9jd1t
1kan7a0
rbxnik
ctbexr
1i7frrb
1mj4wan
1ev4zr3
1iay3ho
1fchj68
1hvkibh
pkx130
dvpmzh
1cfls4o
1dgvbk3
1k39ivu
1fdo5i6
1cw23pl
pikf4a
qk2hi6
1f87trd
1cff57p
rbyjoh
102k90i
1hivdfb
ma9q97
1keob9h
1cfkwst
6huur1
6mlw4g
1i6hq99
pgr3hu
klmw4e
1o5brq4
iu5ni6
ii7crk
hwg76m
1hvy4tn
1m3aruq
1ki13gw
pki3bi
1fedhfq
klmxfd
1ibhxue
phl3w1
6i16dc
1hcj6q8
1k3xjwa
irge9q
1cflsm2
1o1avf3
1ilaa5t
bm5mp5
1hlghkl
1mkefuc
vkf43t
hvyvex
1kbcswm
dvpob4
1keeuco
1mkg5im
pz4uey
k0ggf2
uhvc8d
dxnsue
1mmjtlh
nj5cyw
ahllpj
1l1k1pn
jgqv7m
dvpl0y
jgj9ky
1k8f7so
q8b1fn
gjag74
iu6c4z
6ndv5s
q3v4vf
1m6d1sm
1cflywj
pd59qi
y6pr2f
irg9a0
1ibinoq
1kelngh
6mo4a4
1hcicwa
dvpnnh
ukybyw
1kpbs3a
1mkenpr
1df93um
1ovxxec
oxlvxd
htqcq2
1mzzl62
iu52gn
1hx27kq
1n7u4f1
knvpze
1fd1fw6
1mzfiqz
1kfcrov
1fcp56n
dz8lzc
it97fr
oe9908
1mj3ora
dvqape
1n7vrhs
inejk3
1hhh2bl
1lu9qxe
uiefho
1hd2edx
cvllxy
irg5zc
1mkef87
1hvlk3t
1cflevm
19jqtzq
onokfh
nwwkec
1mkhnhb
1n1fa3k
bm24c4
1g9h06f
mbxj9p
jbo4e7
1df9xlz
zwm751
angtkc
1n9vbff
dwbw0t
1kh3jnc
1i0e2o0
sl5rj1
ma2uyb
anso7g
pgq2uc
1mwrtjc
1mj2lgs
1ld4hdv
1n1bx9a
q5zxrd
1cflrvt
i3o8w6
sug13e
1df91r6
1feqgwk
k89tp6
1d2q970
airohb
hb89vo
te28vt
1mzxqwt
suom7z
1df937o
kmjc8n
15sls70
1hjf992
pgpg6o
1mj41u7
1jhsvos
j7lwf0
1fc0iks
1oqnp2l
1jfbvyd
lhabi5
n8jjdr
1n1fomb
1hktuhj
abwryd
bm25yy
skzy17
1hut033
ubmlcq
d0c6bo
1hclbkf
1hcqpz2
i9epr9
jgp6kh
lsly6o
1cy5pan
18e3o7w
1d7mqs7
pxoyjx
1hfykd1
1kr33bz
1g9ixn9
1mmfpsx
pznnd4
131z6wn
1kfnlnu
c6zore
1mkhei3
pgu4dp
19zfxwv
niv0mm
1fe8thf
ha9d7t
1jl2kxn
1hbq18x
dwcg5d
1hyzoat
dwbgsb
1kno6p5
dz8qbo
pwh1bk
abwpui
19kk625
ai7krn
m2d9qi
jgpbi0
1k39j2f
qbvdf3
suc4p8
k0mhto
stxdnr
1o7unnh
1ca0n5u
1huz352
k89pkp
it9dek
1jkl5hn
ii7m2g
1jwxv5
cwsqq2
10s9hjv
ijp11l
ai7kgk
1lnu2h3
1mmjud1
1milzig
1jx69f
j5r1bs
omqrh9
iu54t1
it97sd
pgrgw1
phqnqg
kmj3x8
kmiuri
lsic4o
sub3lo
1hkp1a8
mwhdlm
1i6jg32
1gcc3ag
1hzowl1
bm28fk
1i6ylp6
iu5znq
dz8obw
1ecfd9
1nb67r1
jc2cxe
1mzw4b0
1o79em7
ky3v1x
1iqsvf6
1moc67x
kln2qb
1cfkwid
1mwktxf
1l8k8kt
1ic2yku
1mbyups
1ibhx9m
1hhvzyz
1j8aa4
1mkeifi
12dysa7
1feo0u4
n6z1ic
nco212
jgr0fy
pgq581
1cfm4pq
nz3wn0
1mkevfi
1hdwd7g
q3v542
1gcc8le
168cglb
mglcrd
1fd2hv6
1j2zfnr
lmko5g
1hxgito
pin86h
k0aolp
irgasx
1hrru2v
1k81yhj
m3r0vd
1hrnus2
1ll3crx
1i8f2fi
1mobj6a
6ehtsh
1ml03nb
1mgk6n8
myqc5p
phyk8z
1oqm9qj
mg4um6
sl3abx
1fe17ye
jgpdiu
1hnxtqn
1hv8pag
1c7zvjt
1hlo25f
mkpnrw
dwbngc
1i6w0x4
7mgpvy
m2da9w
it9djm
1k3o66g
1hbjhyq
1hbv1v8
1k2sxtg
1f7tte
dvpwzb
bl0wj6
10s9j0x
pgmagp
u62kgi
1o8ajgb
gx18dj
x17p09
1lahe11
mg55c0
pkm047
1iebq3c
1hvl7k3
1nb67l9
1jz5b06
1ndd29q
1mickl4
pkg1up
1oadkle
1c7zply
iu1mb2
1hlhcfp
1mkhjqe
qlbpvv
1mugp18
1n02iok
phc9v1
1o19kvs
stma8d
1k8tjzm
1mj3pit
1hpckdt
1ifnlrc
1izf22o
na01e3
1df93mq
myug6h
1f63u1q
cxujsr
q3v400
oee6mn
1mqt6s0
ky3vb9
1cflf3m
k88xiq
cs99i9
klmv8f
heipu9
1mbytye
pin9nu
k18b30
1ib9sjb
ijd5y6
1n001oz
i2t89o
p6em5y
lr0gt4
dvpuo0
m9rkmb
1n1c1k2
1i5rj17
1hd4jzx
1hfp468
1mbur7r
1hm1fr3
1lm5qqe
1cfn4ag
1mkhuw9
1j8whi
1k5l2q
1clsyq6
w40c84
1mmgczi
1hdif8e
xym46g
1cflefo
ama8wk
1e6w7sx
dz8bm7
k0m50b
1k3fr4i
1g65b1m
klmy1m
1cflekg
1gryal7
na0n0y
1cflrsx
1fcbbnp
1mmg8ft
1m1yjf5
phkyy8
1jmm316
1kella6
1ny3w4x
i2tryp
anx1rj
dwjd8o
k0m678
6nivlq
jgp74m
1he2s7z
d0fdrk
1kbc11y
k88zc0
cvlm1u
10a2ny7
1he1bjg
1cflqqf
slhf87
1oa9mtz
xol89w
1d1yyse
1pgo76g
1f64cp9
1fdb0pq
dwc2gu
1k2nh4j
aclus6
1l7ln0w
1i9jt4f
6poq0c
1mkh494
1li1xfp
1o2oxh3
1dfa2m3
1jz6kq0
1jkvytf
8m37r3
k89jhk
jgpc1m
1jjvsga
dvqi58
1n2czov
1df9jce
1htbwlr
1mkfz1z
lsifxm
phthls
q3yttd
n65mhn
h8wtg7
o9p07k
aoin0n
1j87v1
dwnnbl
mw449l
1hpcihc
k0mgk1
1fe64kl
1hdskq6
ufly7p
ht84ti
hfg04s
cxrstl
nk6167
mgdbio
1kothwl
1l5seol
1iwtu78
1do0f36
abx0dx
xun6n3
k89h1i
n4ulrl
l605do
1mj2izg
1i4osk2
1i4uv5o
1ib9h39
jbrlc8
1cflm3n
bm24b2
1k371g3
14n298j
1o18jdw
h9kwtq
jgqzlu
1f63vmm
p0p3vc
q5bvas
1m0cvq7
1heznye
1hd076t
1h3mr7q
mysyfc
1hvlrza
m7pwso
phpeol
a9zpej
iu541p
6i1h06
1e0v4g
1kaa8sw
k1cx38
ies3ur
1i1hxw5
dvqcf4
n88zgy
u5kost
jgpeo7
1mkgdf0
1hlfnc9
1mfqkvv
1n74t3q
184zm1l
1fheh7
