https://raw.githubusercontent.com/igor-kutepov/codeabbey/master/src/main/java/com/kutepov/samples/codeabbey/SweetHarvest.java
https://raw.githubusercontent.com/Xzya/CodeAbbeySolutions/master/SweetHarvest.py
https://raw.githubusercontent.com/JesseClarkND/codeabbey_in_C-NET/master/Sweet%20Harvest
