https://raw.githubusercontent.com/nikzsaz/Codeforces-solution/master/546A-SoldierAndBananas.cpp
https://raw.githubusercontent.com/yeicol/CodeForces/master/CF546ASoldierAndBananas.java
https://raw.githubusercontent.com/dwiajik/codeforces/master/546A.py
