https://raw.githubusercontent.com/jaymeforeshew/ServiceLane/master/serviceLane.cc
https://raw.githubusercontent.com/mattspaulding/hacker-rank/master/HackerRank/Algorithms/Warmup/ServiceLane.cs
https://raw.githubusercontent.com/leeychee/hackerrank/master/practice/algorithms/implementation/service_lane/main.go
https://raw.githubusercontent.com/charles-wangkai/hackerrank/master/service-lane/Solution.java
https://raw.githubusercontent.com/gabrielgiordan/hackerrank/master/algorithms/implementation/service-lane.js
