https://raw.githubusercontent.com/AvetisG/CodeEval/master/01%20-%20Easy/C%23/OddNumbers/OddNumbersSolution.cs
https://raw.githubusercontent.com/mpillar/codeeval/master/0-easy/odd-numbers/OddNumbers.java
https://raw.githubusercontent.com/pascal-bourut/codeeval-challenges/master/easy/25%20-%20Odd%20numbers/main.js
https://raw.githubusercontent.com/pascal-bourut/codeeval-challenges/master/easy/25%20-%20Odd%20numbers/main.php
https://gist.githubusercontent.com/yuheiomori/2600311/raw/ec91df4b2955ac5d701cdcc833ad5ca5f75d75d5/odd_numbers.py
