https://raw.githubusercontent.com/mpillar/codeeval/master/0-easy/sum-of-integers-in-a-file/main.cpp
https://raw.githubusercontent.com/AvetisG/CodeEval/master/01%20-%20Easy/C%23/SumOfIntegersFromFile/SumOfIntegersFromFileSolution.cs
https://raw.githubusercontent.com/mpillar/codeeval/master/0-easy/sum-of-integers-in-a-file/SumOfIntegersInAFile.java
https://raw.githubusercontent.com/pascal-bourut/codeeval-challenges/master/easy/24%20-%20Sum%20of%20integers%20from%20file/24.js
https://raw.githubusercontent.com/blamonet/php-code-eval-solutions/master/sum_of_integers_from_file.php
https://raw.githubusercontent.com/mementum/codeeval/master/01-easy/0024-sum-of-integers-from-file/0024-sum-of-integers-from-file.py
https://raw.githubusercontent.com/delynn/code-eval/master/ruby/24-sum-of-integers-from-file.rb
