https://www.absolomb.com/2018-01-16-UnderTheWire-Century/
http://www.underthewire.tech/century/century.htm
https://craftware.xyz/ctf/underthewire/2018/05/10/UnderTheWire-Century.html
https://medium.com/secttp/underthewire-century-level-1-d8ac51d40f0
https://www.youtube.com/watch?v=864S16g_SQs
