https://www.hackingarticles.in/hack-the-box-dab-walkthrough/
https://0xrick.github.io/hack-the-box/dab/
https://hackso.me/dab-htb-walkthrough/
https://medium.com/@eDodo90/writeup-hack-the-box-dab-a159f67f91e8
https://medium.com/@noobintheshell/htb-dab-writeup-6459329737d0
https://blog.initd.sh/walkthrough/hackthebox/dab-walkthrough/
https://raw.githubusercontent.com/notdodo/HTB-writeup/master/boxes/dab.pdf
https://0xdf.gitlab.io/2019/02/02/htb-dab.html
https://devel0pment.de/?p=1136
https://www.youtube.com/watch?v=JvqBaZ0WnV4
https://www.youtube.com/watch?v=5WO5nLy3hxo
