https://github.com/smholsen/backdoorctf/tree/master/beginners/2013-bin50#2013-bin-50
https://www.youtube.com/watch?v=cTVKz9I9bLI
https://anee.me/backdoorctf-2013-bin-50-writeup-a296fe37fe06
https://www.greghilston.com/post/backdoorctf_bin_50/
https://pastebin.com/XANS1wdU
https://bad3r.xyz/blog/ae27ff-walkthrough-1-5/
https://raw.githubusercontent.com/USCGA/writeups/master/online_ctfs/32c3_2016/forth/README.md
https://github.com/huiwz/CTFLearnSolutions/blob/master/Forensics%20101.md
https://www.youtube.com/watch?v=jn5Y3cOc-mM
https://www.youtube.com/watch?v=34_DDIAkxdY
https://www.youtube.com/watch?v=OOHTY-rnZfE
https://www.youtube.com/watch?v=U8urYejzUYw
https://www.youtube.com/watch?v=Bh1VOrRjX0E
https://www.youtube.com/watch?v=OWMwCE-EZL0
https://www.youtube.com/watch?v=ioiyyGBJ5Qo
https://fareedfauzi.github.io/Backdoor-RE-Walktrough/#
https://anee.me/backdoor-ctf-2013-bin-100-writeup-afa213794d33
