https://medium.com/@yassergersy/badstore-assignment-d93422e56b31
https://www.youtube.com/watch?v=KmuHFJvz_xI
https://r0h17infosec.blogspot.com/2015/10/badstore-webapp-report.html
https://medium.com/syscall59/badstore-1-2-3-walkthrough-vulnhub-7816f3001333
https://www.solvetic.com/tutoriales/article/2266-badstore-web-para-pruebas-de-pentesting/
https://www.youtube.com/watch?v=OPhqJTBGZsw
https://ittechnologist.wordpress.com/2016/09/29/kali-pentest-sql-injection-and-prevent-with-varnish-4/
https://armerj.github.io/SQLi-BadStore/
https://cyb3r-cod3r.blogspot.com/2017/04/badstore-vulnerabilities.html
https://www.flu-project.com/2011/05/badstore-aprende-seguridad-web-sin_4899.html
https://usermanual.wiki/Document/BadStorenetv21Manual.663803225.pdf
https://teachcryptography.blogspot.com/2015/03/badstore-funway-of-exploiting-web.html
https://www.youtube.com/watch?v=yYNGgx4gI4w
https://www.youtube.com/watch?v=SRUnb_O1-vY
https://conectabell.com/tutorial-sql-injection-con-sqlmap/
https://www.youtube.com/watch?v=jmYSAz8U08Q
http://blahblahblog4u.blogspot.com/2014/04/sql-injection.html
https://stackoverflow.com/questions/33880418/sql-injection-on-badstore
https://www.youtube.com/watch?v=f70AUwSUYJk
https://hackxcrack.net/foro/hacking/badstore-aprende-seguridad-web-sin-meterte-en-lios/
https://raw.githubusercontent.com/manujose94/ETSINF-4/8860408c6988e36afc4146e8bd51c6b81b791a9c/SSI/Lab/Practica%20Badstore/notas_boadstore
