https://null-byte.wonderhowto.com/news/goodnight-byte-hackthissite-realistic-3-real-hacking-simulations-0133209/
https://www.youtube.com/watch?v=r-UtIR_gqzg
https://www.youtube.com/watch?v=TCExdF7LlQ4
http://4allgeeks.blogspot.com/2010/10/hackthissite-realistic-mission-3.html
https://www.youtube.com/watch?v=kfOAFGR-E1Y
https://www.aldeid.com/wiki/Hackthissite/Realistic/Level3
http://zer0byte.com/2011/11/14/hackthissite-org-realistic-mission-1-%E2%80%93-16-walk-throughs/
https://www.hackingcastle.com/2020/01/hack-this-site-info-walkthrough.html
