https://www.youtube.com/watch?v=0lpNf3lJFF0
https://www.youtube.com/watch?v=7l_k-9gesLY
https://www.peerlyst.com/posts/android4-vulnhub-ctf-walkthrough-motasem-hamdan
https://motasem-hamdan-notes.blogspot.com/2018/08/android4-vulnhub-ctf-walkthrough.html
https://www.linkedin.com/pulse/android4-vulnhub-ctf-walkthrough-motasem-hamdan/
