https://raw.githubusercontent.com/StevenDunn/CodeEval/master/BrokenLCD/c/blcd.c
https://raw.githubusercontent.com/StevenDunn/CodeEval/master/BrokenLCD/cpp/blcd.cpp
https://raw.githubusercontent.com/ferhatelmas/algo/master/codeEval/medium/broken_lcd.py
