https://alexandervoidstar.wordpress.com/2015/07/12/hackthis-main-level-8/
https://www.youtube.com/watch?v=feQv9xf4Yew
https://www.youtube.com/watch?v=xLO4SxeA-lI
https://www.youtube.com/watch?v=RmG9_Fk1niI
https://www.youtube.com/watch?v=GyCbPm44mz4
http://liberte-informatique.blogspot.com.co/2013/03/hackthiscouk-main-level-8.html
