https://computersecuritystudent.com/SECURITY_TOOLS/DVWA/DVWAv107/lesson14/index.html
https://redinfocol.org/dvwa-conociendo-y-explotando-diferentes-vulnerabilidades-level-low/
https://www.youtube.com/watch?v=nKBKMyLUPoc&list=PLZUQcQP4Xtlp64Q6tzw8GdLsOweBsKDSs&index=6
https://pentestlab.blog/2012/11/29/bypassing-file-upload-restrictions/
https://youtu.be/8-LdJZ8y3MI
https://youtu.be/0uMrhzMMHRQ
https://drive.google.com/open?id=1h3RMRiQT_lRW840fuVV5PBtO1oFJ0jNx
https://drive.google.com/open?id=1-alwZEFSzHxFD9Pyu-cZiMs_gXuacQMv
https://drive.google.com/open?id=1o7aiFHZkQOA8Ik4TALxX5XGdBmMxKLz4
https://raw.githubusercontent.com/sheimo/DVWA-Answers/master/README.md
https://github.com/sheimo/DVWA-Answers#unrestricted-file-upload
https://www.shellvoide.com/hacks/how-to-upload-php-web-shell-using-weevely-to-get-backdoor-access/
https://zarsec2.wordpress.com/2018/06/17/dvwa-and-gaining-shell-access/
https://www.hackers-arise.com/single-post/2017/12/03/Web-App-Hacking-Part-6-Injecting-a-Backdoor-into-a-Website-with-weevely
https://www.hackingarticles.in/hack-file-upload-vulnerability-dvwa-bypass-security/
http://prana5f8.blogspot.com/2015/09/exploit-dvwa-and-upload-backdoor-hidden.html
https://shacojx.blogspot.com/2017/10/upload-and-use-c99php-backdoor-shell.html
http://elitebloggerz.blogspot.com/2014/09/how-to-upload-c99-shell-backdoor-and.html
https://www.hackingarticles.in/web-shells-penetration-testing-beginner-guide/
http://prana5f3.blogspot.com/2015/09/upload-backdoor-using-sqlmap.html
http://nhahangthiencam.blogspot.com/2013/11/huong-dan-thuc-hanh-upload-and-use.html
