https://www.youtube.com/watch?v=o5x1yg3JnYI
https://www.youtube.com/watch?v=NuVzukrSfKU
https://hkh4cks.com/blog/2017/12/30/htb-brainfuck-walkthrough/
https://www.linkedin.com/pulse/hack-box-challenge-brainfuck-walkthrough-raj-chandel
https://www.peerlyst.com/posts/how-to-hackthebox-jeeves-machine-writeup-spirited-wolf
https://redteamtutorials.com/2018/11/15/hack-the-box-brain_fk/
https://www.youtube.com/watch?v=ffXRwcNjvvA
https://medium.com/@ranakhalil101/hack-the-box-brainfuck-writeup-w-o-metasploit-5075c0c55e93
