https://raw.githubusercontent.com/leeychee/hackerrank/master/practice/algorithms/strings/two_characters/main.go
https://raw.githubusercontent.com/charles-wangkai/hackerrank/master/two-characters/Solution.java
https://raw.githubusercontent.com/danhenriquesc/hackerrank/master/algorithms/strings/two_characters.php
