https://raw.githubusercontent.com/lifeofpentester/Net-Force_Solutions/master/Cryptography/Net-Force_302_Substitution_Solution.py
https://raw.githubusercontent.com/luceatnobis/challenges/master/net-force.nl/subst/subst
https://raw.githubusercontent.com/amirootyet/Net-Force_Solutions/master/Cryptography/Net-Force_302_Substitution_Solution.py

