https://raw.githubusercontent.com/DestructHub/ProjectEuler/master/Problem045/C/solution_1.c
https://raw.githubusercontent.com/zimpha/competitive-programming/master/project-euler/volume01/45.cc
https://raw.githubusercontent.com/DestructHub/ProjectEuler/master/Problem045/Elixir/solution_1.exs
https://raw.githubusercontent.com/DestructHub/ProjectEuler/master/Problem045/Go/solution_1.go
https://raw.githubusercontent.com/nayuki/Project-Euler-solutions/master/haskell/p045.hs
https://raw.githubusercontent.com/nayuki/Project-Euler-solutions/master/java/p045.java
https://raw.githubusercontent.com/DestructHub/ProjectEuler/master/Problem045/CommonLisp/solution_1.lisp
https://raw.githubusercontent.com/DestructHub/ProjectEuler/master/Problem045/Python/solution_1.py
https://raw.githubusercontent.com/DestructHub/ProjectEuler/master/Problem045/Ruby/solution_1.rb
https://raw.githubusercontent.com/zsiciarz/euler.rs/master/src/solutions/problem45.rs
https://raw.githubusercontent.com/DestructHub/ProjectEuler/master/Problem045/Swift/solution_1.swift
