https://www.hackingarticles.in/hack-the-box-holiday-walkthrough/
https://www.youtube.com/watch?v=FvHyt7KrsPE
https://0xdf.gitlab.io/2019/09/11/htb-holiday.html
https://www.hackplayers.com/2018/12/htb-old-but-gold-write-ups-holiday.html
https://raw.githubusercontent.com/Kyuu-Ji/htb-write-up/master/holiday/write-up-holiday.md
https://medium.com/@vesirin/holiday-is-one-of-the-more-difficult-boxes-on-hackthebox-with-a-mere-137-system-owns-at-the-time-of-6901cf70d44a
https://www.justinoblak.com/2017/11/19/hack-the-box-holiday.html
https://thehacktoday.com/hack-the-box-holiday-walkthrough/
https://www.puckiestyle.nl/htb-holiday-2/
https://hkh4cks.com/blog/2017/12/31/htb-holiday-walkthrough/
https://madneal.com/post/holiday-hack-the-box/
https://raw.githubusercontent.com/neal1991/htb/master/Holiday/README.md
https://www.jdksec.com/hack-the-box/holiday
https://www.codercto.com/a/81246.html
https://cloud.tencent.com/developer/article/1545421
