https://raw.githubusercontent.com/dominiquejb/ringzer0team-CTF/master/challenge57/hashbreakerreloaded.txt
https://github.com/rdtsc/ringzer0-ctf-solutions/tree/master/src/hash-breaker-reloaded
https://raw.githubusercontent.com/mnoalett/ringzer0-ctf/master/sha2.py
