http://fkclai.blogspot.com/2018/09/ctflearn-character-encoding-httpsbeta.html
https://www.embeddedhacker.com/2019/10/hacking-walkthrough-ctflearn-cryptography-easy/
https://raw.githubusercontent.com/cerc-undip/CTF-Learn-Writeup/master/charater_encoding_COMPLETE/script.py
