https://raw.githubusercontent.com/pastelito02/Challenges-sol/master/Programming/Codeabbey/032/cire.ada
https://raw.githubusercontent.com/phuclevinh2000/CodeAbbey/master/Josephus%20Problem.c
https://raw.githubusercontent.com/gravoo/codeabbey/master/Josephus%20Problem%20.cpp
https://raw.githubusercontent.com/AleksandrSD/CodeAbbeyProblems/master/Problem32/Program.cs
https://raw.githubusercontent.com/pastelito02/Challenges-sol/master/Programming/Codeabbey/032/Ratzenfutz.d
https://raw.githubusercontent.com/pastelito02/Challenges-sol/master/Programming/Codeabbey/032/alexandershinov.go
https://raw.githubusercontent.com/danielmmetz/codeabbey/master/id32.hs
https://raw.githubusercontent.com/Maximization/CodeAbbey/master/src/JosephusProblem.java
https://raw.githubusercontent.com/pastelito02/Challenges-sol/master/Programming/Codeabbey/032/Zacharias.jl
https://raw.githubusercontent.com/pastelito02/Challenges-sol/master/Programming/Codeabbey/032/julio_arboleda.js
https://raw.githubusercontent.com/chriswood/codeabbey/master/ca32.lisp
https://raw.githubusercontent.com/pastelito02/Challenges-sol/master/Programming/Codeabbey/032/atercattus.lua
https://raw.githubusercontent.com/pastelito02/Challenges-sol/master/Programming/Codeabbey/032/stefan.schmiedl.ml
https://raw.githubusercontent.com/mpeshehonov/Codeabbey/master/practice/%2332/index.php
https://raw.githubusercontent.com/pastelito02/Challenges-sol/master/Programming/Codeabbey/032/pearl_barley.pl
https://raw.githubusercontent.com/John-Russell/CodeAbbey/master/Josephus%20Problem.rb
https://raw.githubusercontent.com/pastelito02/Challenges-sol/master/Programming/Codeabbey/032/Taekyun-Kim.rs
https://raw.githubusercontent.com/mmcdon20/code_abbey/master/src/main/scala/Abbey032.scala
https://raw.githubusercontent.com/pastelito02/Challenges-sol/master/Programming/Codeabbey/032/Guy-Gervais.vb
