https://raw.githubusercontent.com/pluralism/CodeEval/master/The%20Major%20Element.cpp
https://raw.githubusercontent.com/mneudert/codeeval/master/easy/the-major-element/go.go
https://raw.githubusercontent.com/edeng/CodeEval/master/Easy/TheMajorElement.java
https://raw.githubusercontent.com/pascal-bourut/codeeval-challenges/master/easy/132%20-%20The%20major%20element/132.js
https://raw.githubusercontent.com/pascal-bourut/codeeval-challenges/master/easy/132%20-%20The%20major%20element/132.php
https://raw.githubusercontent.com/mpillar/codeeval/master/0-easy/the-major-element/main.py
