https://raw.githubusercontent.com/BlakeBrown/HackerRank-Solutions/master/Algorithms/Graph%20Theory/Breadth%20First%20Search%20-%20Shortest%20Reach.cpp
https://raw.githubusercontent.com/alexprut/HackerRank/master/Algorithms/Graph%20Theory/Breadth%20First%20Search%20Shortest%20Reach/Solution.java
https://raw.githubusercontent.com/witekbobrowski/HackerRank/master/Algorithms/Graph%20Teory/breadth-first-search-shortest-reach.swift
