https://qkqhxla1.tistory.com/133
https://blog.naver.com/dmbs335/220158722124
https://jeonyoungsin.tistory.com/543
https://blog.zairo.kr/entry/Wargamekr-Challenge-login-with-crypto-but
https://mandu-mandu.tistory.com/377
https://b.fantazm.net/entry/wargamekr-Challenge-31-login-with-crypto-but
https://zairo.tistory.com/category/?page=8
https://www.geek-share.com/detail/2699517934.html
https://www.angelwhu.com/paper/2016/10/20/wargamekr-title-writeup/
https://posix.tistory.com/23
