https://medium.com/@andr3w_hilton/skydog-2016-catch-me-if-you-can-vm-vulnhub-com-2a4aa4aea4ce
https://reedphish.wordpress.com/2017/01/08/skydog-con-ctf-2016-catch-me-if-you-can-walkthrough/
https://fwhibbit.es/skydog-con-ctf-2016-catch-me-if-you-can
https://www.youtube.com/watch?v=kO0vwn2VuOc
https://www.hackingarticles.in/hack-skydog-con-ctf-2016-catch-can-vm/
https://professionalhackerdigest.blogspot.com/2016/11/vulnhub-skydogcon-ctf-2016-walkthrough.html
http://www.mrb3n.com/?p=404
http://ext4.co/resolviendo-skydog-vulnhub/
https://www.jamesbower.com/skydog-con-2016-ctf/
https://www.youtube.com/watch?v=k1iFjyrsQqI
http://alickgardiner.com/skydog-vulnhub/
https://7ms.us/7ms-180-vulnhub-walkthrough-skydog-ctf/
https://bzyo.github.io/skydog-2016-catchmeifyoucan/
http://computerexpress2.blogspot.com/2017/11/vulnhub-analysis-jobs-ctf-skydog-2016.html
https://anotsodev.me/vulnhub-skydog-2016-catch-me-if-you-can/
http://futureoscp.blogspot.com/2017/08/vulnhub-skydog-ctf-2016.html
https://www.anquanke.com/post/id/84946
https://habr.com/ru/post/317878/
http://akademy.edu.vn/ceh-vn/hack-the-skydog-con-ctf-2016-catch-me-if-you-can-vm/
https://www.freebuf.com/articles/es/193570.html
