https://0x00sec.org/t/metasploitable-1-walkthrough/3964
https://www.hackingarticles.in/metasploitable-3-exploitation-using-brute-forcing-ssh/
https://charlesreid1.com/wiki/Metasploitable/SSH/Brute_Force
https://null-byte.wonderhowto.com/how-to/gain-ssh-access-servers-by-brute-forcing-credentials-0194263/
https://www.youtube.com/watch?v=QrGEfFJHXQ4
https://www.youtube.com/watch?v=VYBd5DE5HAI
http://blog.itselectlab.com/?p=7266
https://www.hackingarticles.in/comprehensive-guide-on-metasploitable-2/
https://1500bytes.blogspot.com/2018/02/exploiting-openssh-47-openssl-098.html
https://www.youtube.com/watch?v=wrHrob6qqqw
https://stevendcampbell.blogspot.com/2015/09/exploiting-metasploitable2-debian-prng.html
https://www.smeegesec.com/2012/06/backtrack-and-metasploitable-2-brute.html
https://howtotechnoglitz.com/how-to-get-ssh-access-to-servers-by-brute-force-credentials-zero-byte-wonderhowto/
http://yenicagbilisim.com/blog/2015/02/metasploitable-2-exploit-ssh/
