https://raw.githubusercontent.com/BOAKGP/CTF-Writeups/master/PicoCTF%202017/Level%202/Cryptography/Weird%20RSA/README.md
https://www.rootnetsec.com/picoctf-weird-rsa/
http://400pockets.com/blog/2017/08/25/site-pico
