https://techvomit.net/railsgoat-notes/
https://appsecco.com/books/owasp-railsgoat/command-injection.html
https://www.vdalabs.com/2018/01/12/rails-vulnerabilities-find-part-1/
https://www.immun.io/blog/this-week-in-the-app-club-railsgoat
http://vapid.dhs.org/blog/03-19-2015/
https://www.owasp.org/index.php/Unrestricted_File_Upload
https://www.owasp.org/index.php/Testing_for_Command_Injection_(OTG-INPVAL-013)
https://packetstormsecurity.com/files/146600/ClipBucket-SQL-Injection-Command-Injection-File-Upload.html
https://outpost24.com/blog/from-local-file-inclusion-to-remote-code-execution-part-2
https://rorsecurity.info/portfolio/command-injection-in-rails
https://github.com/OWASP/railsgoat/wiki/A1-Command-Injection#command-injection---solution
https://medium.com/@u0x/marshall-unserialization-exploit-for-ruby-on-rails-5-1-4-979475cfdba0
https://github.com/OWASP/railsgoat/wiki/A1-Command-Injection
https://git.io/JvP2w
