https://raw.githubusercontent.com/eagletmt/project-euler-c/master/1-9/problem6.c
https://raw.githubusercontent.com/danielfm/euler-clojure/master/euler/problem_6.clj
https://raw.githubusercontent.com/EaterOA/Euler/master/1-25/euler006.cpp
https://raw.githubusercontent.com/DestructHub/ProjectEuler/master/Problem006/Elixir/solution_1.exs
https://raw.githubusercontent.com/jmoiron/euler.go/master/006.go
https://raw.githubusercontent.com/nayuki/Project-Euler-solutions/master/haskell/p006.hs
https://raw.githubusercontent.com/nayuki/Project-Euler-solutions/master/java/p006.java
https://raw.githubusercontent.com/johnmyleswhite/projecteuler.jl/master/006.jl
https://raw.githubusercontent.com/necolas/project-euler/master/006/006.js
https://raw.githubusercontent.com/DestructHub/ProjectEuler/master/Problem006/CommonLisp/solution_1.lisp
https://raw.githubusercontent.com/lilyball/projecteuler-ocaml/master/prob6.ml
https://raw.githubusercontent.com/fedeisas/project-euler/master/06/run.php
https://raw.githubusercontent.com/jpillora/euler-in-perl/master/006.pl
https://raw.githubusercontent.com/zsiciarz/euler.rs/master/src/solutions/problem6.rs
https://raw.githubusercontent.com/samskivert/euler-scala/master/Euler006.scala
https://raw.githubusercontent.com/nayuki/Project-Euler-solutions/master/mathematica/p006.mathematica
