https://www.youtube.com/watch?v=vABvYNf84eQ
https://www.youtube.com/watch?v=5dQTQSbbsOo
https://www.youtube.com/watch?v=JtXeD9pNznA
https://sithlab.tistory.com/1473
https://raw.githubusercontent.com/pastelito02/Challenges-sol/master/canyouhackit/Web/Solution01.lst
