https://raw.githubusercontent.com/joshimoo/Challenges/master/CodeEval/Easy/MatrixRotation/MatrixRotation.cs
https://raw.githubusercontent.com/fabriziocucci/CodeEval/master/easy/matrix-rotation/java/src/main/java/Main.java
https://raw.githubusercontent.com/mpillar/codeeval/master/0-easy/matrix-rotation/main.py
