27
-5200686 4242305 -6428612
2278849 -6763437 -5051793
-8697062 -5792894 4775765
4528188 -6773166 -3158002
2387716 1379899 9549654
-9853923 7844382 -9053004
-9051368 -1616669 -7696656
-4469257 -9889194 -4025131
3675599 -3497897 6233128
-109995 9083596 5860042
-6259293 -6117089 102348
-2687905 6161759 3338911
2260302 7464697 7546017
-2963932 1992885 -9227149
3878065 -5619399 2152750
3427719 -5473322 -2868
4374715 -4524690 8380463
6678059 1006052 8491268
-7347072 -5318348 -5006628
8886055 4571656 -5923032
4746098 8312363 -2040122
-5151554 -4375541 -5878363
8187356 7884761 -8413666
5733373 -5079171 3579219
6506224 8798893 7959819
-1341026 2226613 -7513502
8656106 -3398672 -2038193
