35 21
10101110101011101110101110101110111
10101000101010101000100010100010101
10101111101110111111101110101110101
10100010001010000010000010101000100
11111111111011101110101011101010101
00001000001000000000101010101010101
10111110101010111111101110111111111
10100010100010001010000010000000000
10111010111010101011101111101110111
10101010001010100010100000100010100
11101010111011101110111111101111101
10101000100010000010001010101000101
10101111111111111010101010111011101
00100000000010001000101000000010001
10111010111010101110111011111011111
10101010100000100000101010000000001
10101111111111101110101010111111101
10001010000010101000100010100010001
11111010101110101011111011101110111
10001010101010001000001000000010100
11101011101011111111111110111111111
