https://ub3rsec.github.io/pages/2016/pwnosv2-sqli.html
http://defsecurityjam.blogspot.co.uk/2015/07/pwnos-version-2-walkthrough.html
http://netsec.ws/?p=430
http://devloop.users.sourceforge.net/index.php?article82/solution-du-ctf-pwnos-2-0
http://forelsec.blogspot.com/2012/08/solving-pwn0s-v2.html
https://blog.g0tmi1k.com/2012/09/pwnos-2-php-web-application/
https://blog.g0tmi1k.com/2012/09/pwnos-2-sql-injection/
https://www.youtube.com/watch?v=xL5ZlPQYUMs
https://www.youtube.com/watch?v=s_hlPdWUGLQ
https://www.youtube.com/watch?v=Jcq_roRfaqM
https://www.youtube.com/watch?v=ytzZfI27ueU
https://www.youtube.com/watch?v=fuciKA8qd3M
