https://www.synackfin.tech/documents/Final_Report_CS_Fundamentals.pdf
https://passionforpentesting.com/2018/01/13/the-bodgeit-store-series-1-level-1-xss-bodgeit-infosec-pentest-appsec-webapp-xss/
https://resources.infosecinstitute.com/the-bodgeit-store-part-1-2/#gref
https://wicksnet.wordpress.com/tag/bodgeit-store/
https://www.youtube.com/watch?v=GLtBiSaqIOk
http://www.ctrl-alt-dev.nl/workshops/hyow/resources/hyow/Hack%20your%20own%20Web-App-v1.0.5.pdf
https://thefluffy007.com/2018/01/13/the-bodgeit-store-series-1-level-1-xss-bodgeit-infosec-pentest-appsec-webapp-xss/
http://ender0101.blogspot.com/2014/08/bodgeit.html
https://maliyaablog.com/2017/05/11/dynamic-security-analysis-for-vulnerability-detection/
