https://raw.githubusercontent.com/c650/hackerrank-solutions/master/Algorithms/Sorting/big-sorting.cpp
https://raw.githubusercontent.com/RyanFehr/HackerRank/master/Algorithms/Sorting/Big%20Sorting/Solution.cs
https://raw.githubusercontent.com/charles-wangkai/hackerrank/master/big-sorting/Solution.java
https://raw.githubusercontent.com/danhenriquesc/hackerrank/master/algorithms/sorting/big_sorting.php
https://raw.githubusercontent.com/raghav97/Hackerrank-Solutions/master/big_sorting.rb
