https://raw.githubusercontent.com/mpillar/codeeval/master/2-hard/closest-pair/ClosestPair.java
https://raw.githubusercontent.com/pascal-bourut/codeeval-challenges/master/hard/51%20-%20Closest%20Pairs/51.js
https://raw.githubusercontent.com/leaen/Codeeval-solutions/master/closest-pair.lua
https://raw.githubusercontent.com/pascal-bourut/codeeval-challenges/master/hard/51%20-%20Closest%20Pairs/51.php
https://raw.githubusercontent.com/antarr/CodeEval-Solutions/master/hard/closestpair.scala
