https://raw.githubusercontent.com/YetAnotherMinion/YAMScratch/master/CodeAbbey/c-sol/src/38.c
https://raw.githubusercontent.com/pastelito02/Challenges-sol/master/Programming/Codeabbey/038/random_guy.cc
https://raw.githubusercontent.com/pastelito02/Challenges-sol/master/Programming/Codeabbey/038/MarcinPatalong.cs
https://raw.githubusercontent.com/pastelito02/Challenges-sol/master/Programming/Codeabbey/038/Ratzenfutz.d
https://raw.githubusercontent.com/KlaudioVito/CodeAbbey/master/QuadraticEquation.java
https://raw.githubusercontent.com/pastelito02/Challenges-sol/master/Programming/Codeabbey/038/DeadIntegral.js
https://raw.githubusercontent.com/pastelito02/Challenges-sol/master/Programming/Codeabbey/038/atercattus.lua
https://raw.githubusercontent.com/pastelito02/Challenges-sol/master/Programming/Codeabbey/038/stefan.schmiedl.ml
https://raw.githubusercontent.com/pastelito02/Challenges-sol/master/Programming/Codeabbey/038/KOR_Ryat.php
https://raw.githubusercontent.com/Xzya/CodeAbbeySolutions/master/QuadraticEquation.py
https://raw.githubusercontent.com/pastelito02/Challenges-sol/master/Programming/Codeabbey/038/maverick.rb
https://raw.githubusercontent.com/pastelito02/Challenges-sol/master/Programming/Codeabbey/038/serviceable.rs
https://raw.githubusercontent.com/mmcdon20/code_abbey/master/src/main/scala/Abbey038.scala
https://raw.githubusercontent.com/pastelito02/Challenges-sol/master/Programming/Codeabbey/038/hamza772000.vb
https://raw.githubusercontent.com/JesseClarkND/codeabbey_in_C-NET/master/Quadratic%20Equation
