https://raw.githubusercontent.com/feix/ctf-writeup/master/canyouhackit/cryptography/solution13
http://deurus.info/2017/04/canyouhack-it-cryptography-challenge-13/
https://raw.githubusercontent.com/pastelito02/Challenges-sol/master/canyouhackit/Crypto/solution13
