https://raw.githubusercontent.com/iburguera/CTF/master/Google-XSS/level4.md
https://gist.githubusercontent.com/pbssubhash/2f99644a4f24e8fe6b3e/raw/b74c8c2897ef7d41a85786b0566a16105530fdba/Google%2520XSS%2520challenge%2520solutions
https://github.com/dsafa/google-ctf-2019/tree/master/04-web-gov-xss
