https://resources.infosecinstitute.com/tutorial-on-sqli-labs/
https://www.youtube.com/watch?v=zaRlcPbfX4M
https://github.com/gr4vit0n/sqli-labs-solution/blob/master/less06.py
http://dummy2dummies.blogspot.com/2012/06/sqli-lab-series-part2.html
https://github.com/WangYihang/sqli-labs/blob/master/writeup/Lesson-06.md
https://securiteam.com/securityreviews/5dp0n1p76e/
https://www.youtube.com/watch?v=Zb1Nj6PAqdE
https://flora.gitbooks.io/web-application-security/sqli-labs_lesson_5&6.html
