https://raw.githubusercontent.com/nikzsaz/Codeforces-solution/master/339A-HelpFulMath.cpp
https://raw.githubusercontent.com/yeicol/CodeForces/master/CF339HelpfulMaths.java
https://raw.githubusercontent.com/dwiajik/codeforces/master/339A.py
