https://raw.githubusercontent.com/rdtsc/codeeval-solutions/master/src/easy/fibonacci-series/solutions/c/solution.c
https://raw.githubusercontent.com/rdtsc/codeeval-solutions/master/src/easy/fibonacci-series/solutions/c%2B%2B/solution.cpp
https://raw.githubusercontent.com/koshkarov/solutions-for-codeeval-tasks/master/FibonacciSeries.cs
https://gist.githubusercontent.com/yuheiomori/7227865/raw/92ce3ce8ec3afb0611b05ee79e88fe5c6e9201e3/fibonacci_series.go
https://raw.githubusercontent.com/mpillar/codeeval/master/0-easy/fibonacci-series/FibonacciSeries.java
https://raw.githubusercontent.com/rdtsc/codeeval-solutions/master/src/easy/fibonacci-series/solutions/javascript/solution.js
https://raw.githubusercontent.com/leaen/Codeeval-solutions/master/fibonacci-series.lua
https://raw.githubusercontent.com/rdtsc/codeeval-solutions/master/src/easy/fibonacci-series/solutions/php/solution.php
https://gist.githubusercontent.com/yuheiomori/2571467/raw/d48740aa4278e5eb3d85bdb572d9b35fb5e97d42/fibonacci_series.py
