https://raw.githubusercontent.com/pascal-bourut/codeeval-challenges/master/hard/61%20-%20Decryption/61.js
https://raw.githubusercontent.com/pascal-bourut/codeeval-challenges/master/hard/61%20-%20Decryption/61.php
https://raw.githubusercontent.com/mpillar/codeeval/master/2-hard/decryption/main.py
