https://github.com/skiptomyliu/solutions-bwapp#sql-injectionsqlite
https://securityshards.wordpress.com/2016/05/10/bwapp-sql-injection-sqlite/
http://stupidsecurity.tistory.com/36?category=760177
https://teckk2.github.io/web-pentesting/2018/02/07/SQL-Injection-(SQLite).html
https://www.youtube.com/watch?v=Cxc13E8wruA
https://www.youtube.com/watch?v=HbGcva6V6Vg
http://dumbmaster.blogspot.com/2017/01/owasp-top-10-bwapp-walkthrough-for-a1_21.html
https://plus.google.com/103026904807977914457/posts/ZC5UAkw3sqT
https://ctf-time.com/bwapp-walkthrough-sql-injection-cross-site-scripting/
https://net123.tistory.com/459?category=695510
