https://raw.githubusercontent.com/pascal-bourut/codeeval-challenges/master/hard/56%20-%20Robot%20movements/56.js
https://raw.githubusercontent.com/pascal-bourut/codeeval-challenges/master/hard/56%20-%20Robot%20movements/56.php
https://raw.githubusercontent.com/mpillar/codeeval/master/2-hard/robot-movements/main.py
