https://raw.githubusercontent.com/feix/ctf-writeup/master/canyouhackit/cryptography/solution1
https://oogenhand.wordpress.com/2014/06/13/canyouhack-it-cryptography-challenge-1/
http://juancho056.blogspot.com/search/label/crypto%20Challenge%201
https://raw.githubusercontent.com/pastelito02/Challenges-sol/master/canyouhackit/Crypto/solution01
