https://medium.com/@w3rallmachines/dc-1-vulnhub-walkthrough-3a2e7042c640
https://hackingresources.com/dc-1-1-vulnhub-walkthrough/
https://raw.githubusercontent.com/mzfr/vulnhub-writeups/master/2019-07-12-DC1.md
https://www.hackingarticles.in/dc-1-vulnhub-walkthrough/
https://stoeps.de/2020/01/05/20200104-walkthrough-dc1/
https://www.sevenlayers.com/index.php/174-vulnhub-dc-1-1-walkthrough
https://infosecjohn.blog/posts/vulnhub-dc-1/
https://www.cyberguider.com/dc11-vulnhub-walkthrough/
https://ethicalhackingguru.com/dc-1-vulnhub-kali-linux-walkthrough/
https://www.youtube.com/watch?v=Q7cwVNQgawg
https://pentesterjourney.com/2019/04/12/vulnhub-dc-1-walkthrough/
https://securityboulevard.com/2019/05/dc-1-vulnhub-walkthrough/
