https://www.irongeek.com/i.php?page=videos/web-application-pen-testing-tutorials-with-mutillidae
https://youtu.be/KWcckqnUGo8
https://www.aparat.com/v/QnDC8/%D8%A2%D9%85%D9%88%D8%B2%D8%B4_Mutillidae_%D8%A8%D8%AE%D8%B4_%D9%87%D8%B4%D8%AA%D9%85
