https://raw.githubusercontent.com/mpillar/codeeval/master/1-moderate/longest-lines/LongestLines.java
https://gist.githubusercontent.com/yuheiomori/2664672/raw/ff25b67806bc1152987e56eda91fe95b09e6b843/longest_lines.py
https://raw.githubusercontent.com/delynn/code-eval/master/ruby/2-longest-lines.rb
