https://raw.githubusercontent.com/Gamer1092/Coderbyte/Easy/Ex%20Oh.cpp
https://raw.githubusercontent.com/Nigelmnz/CoderbyteSolutions/master/14-ExOh/14.hs
https://raw.githubusercontent.com/TheAaronCovington/Java-Coderbyte-Solutions/master/14ExOh.java
https://raw.githubusercontent.com/ZLester/Coderbyte-Solutions/master/Easy/14%20-%20Ex%20Oh.js
https://raw.githubusercontent.com/alecashford/Coderbyte-Solutions-Python/master/exoh.py
https://raw.githubusercontent.com/juyongsim/coderbyte/master/ExOh.rb
