https://raw.githubusercontent.com/HamidTheGeek/HackerRankSolutions/master/Solutions/Flippingbits.cs
https://raw.githubusercontent.com/danhenriquesc/hackerrank/master/algorithms/bit_manipulation/flipping_bits.php
https://raw.githubusercontent.com/rofrol/rust-hackerrank/master/src/bin/flipping-bits.rs
