https://raw.githubusercontent.com/BlakeBrown/HackerRank-Solutions/master/Algorithms/Strings/separate-the-numbers.cpp
https://raw.githubusercontent.com/leeychee/hackerrank/master/practice/algorithms/strings/separate_the_numbers/main.go
https://raw.githubusercontent.com/charles-wangkai/hackerrank/master/separate-the-numbers/Solution.java
